vhdl/waveforms/tb_DDFS.vcd
$date
  Fri May 18 16:18:57 2018
$end
$version
  GHDL v0
$end
$timescale
  1 fs
$end
$var reg 1 ! clk_ext $end
$var reg 1 " reset_ext $end
$var reg 12 # fw_ext[11:0] $end
$var reg 1 $ testing $end
$scope module i_dut1 $end
$var reg 1 % clk $end
$var reg 1 & reset $end
$var reg 12 ' fw[11:0] $end
$var reg 6 ( yq[5:0] $end
$var reg 12 ) pa_to_lut[11:0] $end
$scope module i_pa $end
$var reg 1 * clk $end
$var reg 1 + rst $end
$var reg 12 , pa_in[11:0] $end
$var reg 12 - pa_out[11:0] $end
$var reg 12 . kfw_s[11:0] $end
$var reg 12 / kfw_next[11:0] $end
$scope module i_adder $end
$var reg 12 0 x[11:0] $end
$var reg 12 1 y[11:0] $end
$var reg 1 2 c0 $end
$var reg 12 3 s[11:0] $end
$var reg 1 4 cn $end
$var reg 13 5 c[12:0] $end
$scope module gen_rca(0) $end
$scope module i_fa $end
$var reg 1 6 x $end
$var reg 1 7 y $end
$var reg 1 8 cin $end
$var reg 1 9 s $end
$var reg 1 : cout $end
$upscope $end
$upscope $end
$scope module gen_rca(1) $end
$scope module i_fa $end
$var reg 1 ; x $end
$var reg 1 < y $end
$var reg 1 = cin $end
$var reg 1 > s $end
$var reg 1 ? cout $end
$upscope $end
$upscope $end
$scope module gen_rca(2) $end
$scope module i_fa $end
$var reg 1 @ x $end
$var reg 1 A y $end
$var reg 1 B cin $end
$var reg 1 C s $end
$var reg 1 D cout $end
$upscope $end
$upscope $end
$scope module gen_rca(3) $end
$scope module i_fa $end
$var reg 1 E x $end
$var reg 1 F y $end
$var reg 1 G cin $end
$var reg 1 H s $end
$var reg 1 I cout $end
$upscope $end
$upscope $end
$scope module gen_rca(4) $end
$scope module i_fa $end
$var reg 1 J x $end
$var reg 1 K y $end
$var reg 1 L cin $end
$var reg 1 M s $end
$var reg 1 N cout $end
$upscope $end
$upscope $end
$scope module gen_rca(5) $end
$scope module i_fa $end
$var reg 1 O x $end
$var reg 1 P y $end
$var reg 1 Q cin $end
$var reg 1 R s $end
$var reg 1 S cout $end
$upscope $end
$upscope $end
$scope module gen_rca(6) $end
$scope module i_fa $end
$var reg 1 T x $end
$var reg 1 U y $end
$var reg 1 V cin $end
$var reg 1 W s $end
$var reg 1 X cout $end
$upscope $end
$upscope $end
$scope module gen_rca(7) $end
$scope module i_fa $end
$var reg 1 Y x $end
$var reg 1 Z y $end
$var reg 1 [ cin $end
$var reg 1 \ s $end
$var reg 1 ] cout $end
$upscope $end
$upscope $end
$scope module gen_rca(8) $end
$scope module i_fa $end
$var reg 1 ^ x $end
$var reg 1 _ y $end
$var reg 1 ` cin $end
$var reg 1 a s $end
$var reg 1 b cout $end
$upscope $end
$upscope $end
$scope module gen_rca(9) $end
$scope module i_fa $end
$var reg 1 c x $end
$var reg 1 d y $end
$var reg 1 e cin $end
$var reg 1 f s $end
$var reg 1 g cout $end
$upscope $end
$upscope $end
$scope module gen_rca(10) $end
$scope module i_fa $end
$var reg 1 h x $end
$var reg 1 i y $end
$var reg 1 j cin $end
$var reg 1 k s $end
$var reg 1 l cout $end
$upscope $end
$upscope $end
$scope module gen_rca(11) $end
$scope module i_fa $end
$var reg 1 m x $end
$var reg 1 n y $end
$var reg 1 o cin $end
$var reg 1 p s $end
$var reg 1 q cout $end
$upscope $end
$upscope $end
$upscope $end
$scope module i_reg $end
$var reg 1 r clk $end
$var reg 1 s rst $end
$var reg 12 t d[11:0] $end
$var reg 12 u q[11:0] $end
$scope module reg_gen(0) $end
$scope module i_dff $end
$var reg 1 v clk_dff $end
$var reg 1 w rst_dff $end
$var reg 1 x d_dff $end
$var reg 1 y q_dff $end
$upscope $end
$upscope $end
$scope module reg_gen(1) $end
$scope module i_dff $end
$var reg 1 z clk_dff $end
$var reg 1 { rst_dff $end
$var reg 1 | d_dff $end
$var reg 1 } q_dff $end
$upscope $end
$upscope $end
$scope module reg_gen(2) $end
$scope module i_dff $end
$var reg 1 !" clk_dff $end
$var reg 1 "" rst_dff $end
$var reg 1 #" d_dff $end
$var reg 1 $" q_dff $end
$upscope $end
$upscope $end
$scope module reg_gen(3) $end
$scope module i_dff $end
$var reg 1 %" clk_dff $end
$var reg 1 &" rst_dff $end
$var reg 1 '" d_dff $end
$var reg 1 (" q_dff $end
$upscope $end
$upscope $end
$scope module reg_gen(4) $end
$scope module i_dff $end
$var reg 1 )" clk_dff $end
$var reg 1 *" rst_dff $end
$var reg 1 +" d_dff $end
$var reg 1 ," q_dff $end
$upscope $end
$upscope $end
$scope module reg_gen(5) $end
$scope module i_dff $end
$var reg 1 -" clk_dff $end
$var reg 1 ." rst_dff $end
$var reg 1 /" d_dff $end
$var reg 1 0" q_dff $end
$upscope $end
$upscope $end
$scope module reg_gen(6) $end
$scope module i_dff $end
$var reg 1 1" clk_dff $end
$var reg 1 2" rst_dff $end
$var reg 1 3" d_dff $end
$var reg 1 4" q_dff $end
$upscope $end
$upscope $end
$scope module reg_gen(7) $end
$scope module i_dff $end
$var reg 1 5" clk_dff $end
$var reg 1 6" rst_dff $end
$var reg 1 7" d_dff $end
$var reg 1 8" q_dff $end
$upscope $end
$upscope $end
$scope module reg_gen(8) $end
$scope module i_dff $end
$var reg 1 9" clk_dff $end
$var reg 1 :" rst_dff $end
$var reg 1 ;" d_dff $end
$var reg 1 <" q_dff $end
$upscope $end
$upscope $end
$scope module reg_gen(9) $end
$scope module i_dff $end
$var reg 1 =" clk_dff $end
$var reg 1 >" rst_dff $end
$var reg 1 ?" d_dff $end
$var reg 1 @" q_dff $end
$upscope $end
$upscope $end
$scope module reg_gen(10) $end
$scope module i_dff $end
$var reg 1 A" clk_dff $end
$var reg 1 B" rst_dff $end
$var reg 1 C" d_dff $end
$var reg 1 D" q_dff $end
$upscope $end
$upscope $end
$scope module reg_gen(11) $end
$scope module i_dff $end
$var reg 1 E" clk_dff $end
$var reg 1 F" rst_dff $end
$var reg 1 G" d_dff $end
$var reg 1 H" q_dff $end
$upscope $end
$upscope $end
$upscope $end
$upscope $end
$scope module i_lut $end
$var reg 12 I" lut_line[11:0] $end
$var reg 6 J" lut_data[5:0] $end
$upscope $end
$upscope $end
$enddefinitions $end
#0
0!
1"
bUUUUUUUUUUUU #
1$
0%
1&
bUUUUUUUUUUUU '
b000000 (
b000000000000 )
0*
1+
bUUUUUUUUUUUU ,
b000000000000 -
b000000000000 .
bUUUUUUUUUUUU /
bUUUUUUUUUUUU 0
b000000000000 1
02
bUUUUUUUUUUUU 3
04
b0000000000000 5
U6
07
08
U9
0:
U;
0<
0=
U>
0?
U@
0A
0B
UC
0D
UE
0F
0G
UH
0I
UJ
0K
0L
UM
0N
UO
0P
0Q
UR
0S
UT
0U
0V
UW
0X
UY
0Z
0[
U\
0]
U^
0_
0`
Ua
0b
Uc
0d
0e
Uf
0g
Uh
0i
0j
Uk
0l
Um
0n
0o
Up
0q
0r
1s
bUUUUUUUUUUUU t
b000000000000 u
0v
1w
Ux
0y
0z
1{
U|
0}
0!"
1""
U#"
0$"
0%"
1&"
U'"
0("
0)"
1*"
U+"
0,"
0-"
1."
U/"
00"
01"
12"
U3"
04"
05"
16"
U7"
08"
09"
1:"
U;"
0<"
0="
1>"
U?"
0@"
0A"
1B"
UC"
0D"
0E"
1F"
UG"
0H"
b000000000000 I"
b000000 J"
#500000
1!
1%
1*
1r
1v
1z
1!"
1%"
1)"
1-"
11"
15"
19"
1="
1A"
1E"
#1000000
0!
0%
0*
0r
0v
0z
0!"
0%"
0)"
0-"
01"
05"
09"
0="
0A"
0E"
#1500000
1!
1%
1*
1r
1v
1z
1!"
1%"
1)"
1-"
11"
15"
19"
1="
1A"
1E"
#2000000
0!
0%
0*
0r
0v
0z
0!"
0%"
0)"
0-"
01"
05"
09"
0="
0A"
0E"
#2500000
1!
1%
1*
1r
1v
1z
1!"
1%"
1)"
1-"
11"
15"
19"
1="
1A"
1E"
#3000000
0!
0%
0*
0r
0v
0z
0!"
0%"
0)"
0-"
01"
05"
09"
0="
0A"
0E"
#3500000
1!
1%
1*
1r
1v
1z
1!"
1%"
1)"
1-"
11"
15"
19"
1="
1A"
1E"
#4000000
0!
0%
0*
0r
0v
0z
0!"
0%"
0)"
0-"
01"
05"
09"
0="
0A"
0E"
#4500000
1!
1%
1*
1r
1v
1z
1!"
1%"
1)"
1-"
11"
15"
19"
1="
1A"
1E"
#5000000
0!
0%
0*
0r
0v
0z
0!"
0%"
0)"
0-"
01"
05"
09"
0="
0A"
0E"
#5500000
1!
1%
1*
1r
1v
1z
1!"
1%"
1)"
1-"
11"
15"
19"
1="
1A"
1E"
#6000000
0!
0%
0*
0r
0v
0z
0!"
0%"
0)"
0-"
01"
05"
09"
0="
0A"
0E"
#6500000
1!
1%
1*
1r
1v
1z
1!"
1%"
1)"
1-"
11"
15"
19"
1="
1A"
1E"
#7000000
0!
0%
0*
0r
0v
0z
0!"
0%"
0)"
0-"
01"
05"
09"
0="
0A"
0E"
#7500000
1!
1%
1*
1r
1v
1z
1!"
1%"
1)"
1-"
11"
15"
19"
1="
1A"
1E"
#8000000
0!
0%
0*
0r
0v
0z
0!"
0%"
0)"
0-"
01"
05"
09"
0="
0A"
0E"
#8500000
1!
1%
1*
1r
1v
1z
1!"
1%"
1)"
1-"
11"
15"
19"
1="
1A"
1E"
#9000000
0!
0%
0*
0r
0v
0z
0!"
0%"
0)"
0-"
01"
05"
09"
0="
0A"
0E"
#9500000
1!
1%
1*
1r
1v
1z
1!"
1%"
1)"
1-"
11"
15"
19"
1="
1A"
1E"
#10000000
0!
0%
0*
0r
0v
0z
0!"
0%"
0)"
0-"
01"
05"
09"
0="
0A"
0E"
#10500000
1!
1%
1*
1r
1v
1z
1!"
1%"
1)"
1-"
11"
15"
19"
1="
1A"
1E"
#11000000
0!
0%
0*
0r
0v
0z
0!"
0%"
0)"
0-"
01"
05"
09"
0="
0A"
0E"
#11500000
1!
1%
1*
1r
1v
1z
1!"
1%"
1)"
1-"
11"
15"
19"
1="
1A"
1E"
#12000000
0!
0%
0*
0r
0v
0z
0!"
0%"
0)"
0-"
01"
05"
09"
0="
0A"
0E"
#12500000
1!
1%
1*
1r
1v
1z
1!"
1%"
1)"
1-"
11"
15"
19"
1="
1A"
1E"
#13000000
0!
0%
0*
0r
0v
0z
0!"
0%"
0)"
0-"
01"
05"
09"
0="
0A"
0E"
#13500000
1!
1%
1*
1r
1v
1z
1!"
1%"
1)"
1-"
11"
15"
19"
1="
1A"
1E"
#14000000
0!
0%
0*
0r
0v
0z
0!"
0%"
0)"
0-"
01"
05"
09"
0="
0A"
0E"
#14500000
1!
1%
1*
1r
1v
1z
1!"
1%"
1)"
1-"
11"
15"
19"
1="
1A"
1E"
#15000000
0!
0%
0*
0r
0v
0z
0!"
0%"
0)"
0-"
01"
05"
09"
0="
0A"
0E"
#15500000
1!
1%
1*
1r
1v
1z
1!"
1%"
1)"
1-"
11"
15"
19"
1="
1A"
1E"
#16000000
0!
0%
0*
0r
0v
0z
0!"
0%"
0)"
0-"
01"
05"
09"
0="
0A"
0E"
#16500000
1!
1%
1*
1r
1v
1z
1!"
1%"
1)"
1-"
11"
15"
19"
1="
1A"
1E"
#17000000
0!
0%
0*
0r
0v
0z
0!"
0%"
0)"
0-"
01"
05"
09"
0="
0A"
0E"
#17500000
1!
1%
1*
1r
1v
1z
1!"
1%"
1)"
1-"
11"
15"
19"
1="
1A"
1E"
#18000000
0!
0%
0*
0r
0v
0z
0!"
0%"
0)"
0-"
01"
05"
09"
0="
0A"
0E"
#18500000
1!
1%
1*
1r
1v
1z
1!"
1%"
1)"
1-"
11"
15"
19"
1="
1A"
1E"
#19000000
0!
0%
0*
0r
0v
0z
0!"
0%"
0)"
0-"
01"
05"
09"
0="
0A"
0E"
#19500000
1!
1%
1*
1r
1v
1z
1!"
1%"
1)"
1-"
11"
15"
19"
1="
1A"
1E"
#20000000
0!
0%
0*
0r
0v
0z
0!"
0%"
0)"
0-"
01"
05"
09"
0="
0A"
0E"
#20500000
1!
1%
1*
1r
1v
1z
1!"
1%"
1)"
1-"
11"
15"
19"
1="
1A"
1E"
#21000000
0!
0%
0*
0r
0v
0z
0!"
0%"
0)"
0-"
01"
05"
09"
0="
0A"
0E"
#21500000
1!
1%
1*
1r
1v
1z
1!"
1%"
1)"
1-"
11"
15"
19"
1="
1A"
1E"
#22000000
0!
0%
0*
0r
0v
0z
0!"
0%"
0)"
0-"
01"
05"
09"
0="
0A"
0E"
#22500000
1!
1%
1*
1r
1v
1z
1!"
1%"
1)"
1-"
11"
15"
19"
1="
1A"
1E"
#23000000
0!
0%
0*
0r
0v
0z
0!"
0%"
0)"
0-"
01"
05"
09"
0="
0A"
0E"
#23500000
1!
1%
1*
1r
1v
1z
1!"
1%"
1)"
1-"
11"
15"
19"
1="
1A"
1E"
#24000000
0!
0%
0*
0r
0v
0z
0!"
0%"
0)"
0-"
01"
05"
09"
0="
0A"
0E"
#24500000
1!
1%
1*
1r
1v
1z
1!"
1%"
1)"
1-"
11"
15"
19"
1="
1A"
1E"
#25000000
0!
0%
0*
0r
0v
0z
0!"
0%"
0)"
0-"
01"
05"
09"
0="
0A"
0E"
#25500000
1!
1%
1*
1r
1v
1z
1!"
1%"
1)"
1-"
11"
15"
19"
1="
1A"
1E"
#26000000
0!
0%
0*
0r
0v
0z
0!"
0%"
0)"
0-"
01"
05"
09"
0="
0A"
0E"
#26500000
1!
1%
1*
1r
1v
1z
1!"
1%"
1)"
1-"
11"
15"
19"
1="
1A"
1E"
#27000000
0!
0%
0*
0r
0v
0z
0!"
0%"
0)"
0-"
01"
05"
09"
0="
0A"
0E"
#27500000
1!
1%
1*
1r
1v
1z
1!"
1%"
1)"
1-"
11"
15"
19"
1="
1A"
1E"
#28000000
0!
0%
0*
0r
0v
0z
0!"
0%"
0)"
0-"
01"
05"
09"
0="
0A"
0E"
#28500000
1!
1%
1*
1r
1v
1z
1!"
1%"
1)"
1-"
11"
15"
19"
1="
1A"
1E"
#29000000
0!
0%
0*
0r
0v
0z
0!"
0%"
0)"
0-"
01"
05"
09"
0="
0A"
0E"
#29500000
1!
1%
1*
1r
1v
1z
1!"
1%"
1)"
1-"
11"
15"
19"
1="
1A"
1E"
#30000000
0!
0%
0*
0r
0v
0z
0!"
0%"
0)"
0-"
01"
05"
09"
0="
0A"
0E"
#30500000
1!
1%
1*
1r
1v
1z
1!"
1%"
1)"
1-"
11"
15"
19"
1="
1A"
1E"
#31000000
0!
0%
0*
0r
0v
0z
0!"
0%"
0)"
0-"
01"
05"
09"
0="
0A"
0E"
#31500000
1!
1%
1*
1r
1v
1z
1!"
1%"
1)"
1-"
11"
15"
19"
1="
1A"
1E"
#32000000
0!
0%
0*
0r
0v
0z
0!"
0%"
0)"
0-"
01"
05"
09"
0="
0A"
0E"
#32500000
1!
1%
1*
1r
1v
1z
1!"
1%"
1)"
1-"
11"
15"
19"
1="
1A"
1E"
#33000000
0!
0%
0*
0r
0v
0z
0!"
0%"
0)"
0-"
01"
05"
09"
0="
0A"
0E"
#33500000
1!
1%
1*
1r
1v
1z
1!"
1%"
1)"
1-"
11"
15"
19"
1="
1A"
1E"
#34000000
0!
0%
0*
0r
0v
0z
0!"
0%"
0)"
0-"
01"
05"
09"
0="
0A"
0E"
#34500000
1!
1%
1*
1r
1v
1z
1!"
1%"
1)"
1-"
11"
15"
19"
1="
1A"
1E"
#35000000
0!
0%
0*
0r
0v
0z
0!"
0%"
0)"
0-"
01"
05"
09"
0="
0A"
0E"
#35500000
1!
1%
1*
1r
1v
1z
1!"
1%"
1)"
1-"
11"
15"
19"
1="
1A"
1E"
#36000000
0!
0%
0*
0r
0v
0z
0!"
0%"
0)"
0-"
01"
05"
09"
0="
0A"
0E"
#36500000
1!
1%
1*
1r
1v
1z
1!"
1%"
1)"
1-"
11"
15"
19"
1="
1A"
1E"
#37000000
0!
0%
0*
0r
0v
0z
0!"
0%"
0)"
0-"
01"
05"
09"
0="
0A"
0E"
#37500000
1!
1%
1*
1r
1v
1z
1!"
1%"
1)"
1-"
11"
15"
19"
1="
1A"
1E"
#38000000
0!
0%
0*
0r
0v
0z
0!"
0%"
0)"
0-"
01"
05"
09"
0="
0A"
0E"
#38500000
1!
1%
1*
1r
1v
1z
1!"
1%"
1)"
1-"
11"
15"
19"
1="
1A"
1E"
#39000000
0!
0%
0*
0r
0v
0z
0!"
0%"
0)"
0-"
01"
05"
09"
0="
0A"
0E"
#39500000
1!
1%
1*
1r
1v
1z
1!"
1%"
1)"
1-"
11"
15"
19"
1="
1A"
1E"
#40000000
0!
0%
0*
0r
0v
0z
0!"
0%"
0)"
0-"
01"
05"
09"
0="
0A"
0E"
#40500000
1!
1%
1*
1r
1v
1z
1!"
1%"
1)"
1-"
11"
15"
19"
1="
1A"
1E"
#41000000
0!
0%
0*
0r
0v
0z
0!"
0%"
0)"
0-"
01"
05"
09"
0="
0A"
0E"
#41500000
1!
1%
1*
1r
1v
1z
1!"
1%"
1)"
1-"
11"
15"
19"
1="
1A"
1E"
#42000000
0!
0%
0*
0r
0v
0z
0!"
0%"
0)"
0-"
01"
05"
09"
0="
0A"
0E"
#42500000
1!
1%
1*
1r
1v
1z
1!"
1%"
1)"
1-"
11"
15"
19"
1="
1A"
1E"
#43000000
0!
0%
0*
0r
0v
0z
0!"
0%"
0)"
0-"
01"
05"
09"
0="
0A"
0E"
#43500000
1!
1%
1*
1r
1v
1z
1!"
1%"
1)"
1-"
11"
15"
19"
1="
1A"
1E"
#44000000
0!
0%
0*
0r
0v
0z
0!"
0%"
0)"
0-"
01"
05"
09"
0="
0A"
0E"
#44500000
1!
1%
1*
1r
1v
1z
1!"
1%"
1)"
1-"
11"
15"
19"
1="
1A"
1E"
#45000000
0!
0%
0*
0r
0v
0z
0!"
0%"
0)"
0-"
01"
05"
09"
0="
0A"
0E"
#45500000
1!
1%
1*
1r
1v
1z
1!"
1%"
1)"
1-"
11"
15"
19"
1="
1A"
1E"
#46000000
0!
0%
0*
0r
0v
0z
0!"
0%"
0)"
0-"
01"
05"
09"
0="
0A"
0E"
#46500000
1!
1%
1*
1r
1v
1z
1!"
1%"
1)"
1-"
11"
15"
19"
1="
1A"
1E"
#47000000
0!
0%
0*
0r
0v
0z
0!"
0%"
0)"
0-"
01"
05"
09"
0="
0A"
0E"
#47500000
1!
1%
1*
1r
1v
1z
1!"
1%"
1)"
1-"
11"
15"
19"
1="
1A"
1E"
#48000000
0!
0%
0*
0r
0v
0z
0!"
0%"
0)"
0-"
01"
05"
09"
0="
0A"
0E"
#48500000
1!
1%
1*
1r
1v
1z
1!"
1%"
1)"
1-"
11"
15"
19"
1="
1A"
1E"
#49000000
0!
0%
0*
0r
0v
0z
0!"
0%"
0)"
0-"
01"
05"
09"
0="
0A"
0E"
#49500000
1!
1%
1*
1r
1v
1z
1!"
1%"
1)"
1-"
11"
15"
19"
1="
1A"
1E"
#50000000
0!
0%
0*
0r
0v
0z
0!"
0%"
0)"
0-"
01"
05"
09"
0="
0A"
0E"
#50500000
1!
1%
1*
1r
1v
1z
1!"
1%"
1)"
1-"
11"
15"
19"
1="
1A"
1E"
#51000000
0!
0%
0*
0r
0v
0z
0!"
0%"
0)"
0-"
01"
05"
09"
0="
0A"
0E"
#51500000
1!
1%
1*
1r
1v
1z
1!"
1%"
1)"
1-"
11"
15"
19"
1="
1A"
1E"
#52000000
0!
0%
0*
0r
0v
0z
0!"
0%"
0)"
0-"
01"
05"
09"
0="
0A"
0E"
#52500000
1!
1%
1*
1r
1v
1z
1!"
1%"
1)"
1-"
11"
15"
19"
1="
1A"
1E"
#53000000
0!
0%
0*
0r
0v
0z
0!"
0%"
0)"
0-"
01"
05"
09"
0="
0A"
0E"
#53500000
1!
1%
1*
1r
1v
1z
1!"
1%"
1)"
1-"
11"
15"
19"
1="
1A"
1E"
#54000000
0!
0%
0*
0r
0v
0z
0!"
0%"
0)"
0-"
01"
05"
09"
0="
0A"
0E"
#54500000
1!
1%
1*
1r
1v
1z
1!"
1%"
1)"
1-"
11"
15"
19"
1="
1A"
1E"
#55000000
0!
0%
0*
0r
0v
0z
0!"
0%"
0)"
0-"
01"
05"
09"
0="
0A"
0E"
#55500000
1!
1%
1*
1r
1v
1z
1!"
1%"
1)"
1-"
11"
15"
19"
1="
1A"
1E"
#56000000
0!
0%
0*
0r
0v
0z
0!"
0%"
0)"
0-"
01"
05"
09"
0="
0A"
0E"
#56500000
1!
1%
1*
1r
1v
1z
1!"
1%"
1)"
1-"
11"
15"
19"
1="
1A"
1E"
#57000000
0!
0%
0*
0r
0v
0z
0!"
0%"
0)"
0-"
01"
05"
09"
0="
0A"
0E"
#57500000
1!
1%
1*
1r
1v
1z
1!"
1%"
1)"
1-"
11"
15"
19"
1="
1A"
1E"
#58000000
0!
0%
0*
0r
0v
0z
0!"
0%"
0)"
0-"
01"
05"
09"
0="
0A"
0E"
#58500000
1!
1%
1*
1r
1v
1z
1!"
1%"
1)"
1-"
11"
15"
19"
1="
1A"
1E"
#59000000
0!
0%
0*
0r
0v
0z
0!"
0%"
0)"
0-"
01"
05"
09"
0="
0A"
0E"
#59500000
1!
1%
1*
1r
1v
1z
1!"
1%"
1)"
1-"
11"
15"
19"
1="
1A"
1E"
#60000000
0!
0%
0*
0r
0v
0z
0!"
0%"
0)"
0-"
01"
05"
09"
0="
0A"
0E"
#60500000
1!
1%
1*
1r
1v
1z
1!"
1%"
1)"
1-"
11"
15"
19"
1="
1A"
1E"
#61000000
0!
0%
0*
0r
0v
0z
0!"
0%"
0)"
0-"
01"
05"
09"
0="
0A"
0E"
#61500000
1!
1%
1*
1r
1v
1z
1!"
1%"
1)"
1-"
11"
15"
19"
1="
1A"
1E"
#62000000
0!
0%
0*
0r
0v
0z
0!"
0%"
0)"
0-"
01"
05"
09"
0="
0A"
0E"
#62500000
1!
1%
1*
1r
1v
1z
1!"
1%"
1)"
1-"
11"
15"
19"
1="
1A"
1E"
#63000000
0!
0%
0*
0r
0v
0z
0!"
0%"
0)"
0-"
01"
05"
09"
0="
0A"
0E"
#63500000
1!
1%
1*
1r
1v
1z
1!"
1%"
1)"
1-"
11"
15"
19"
1="
1A"
1E"
#64000000
0!
0%
0*
0r
0v
0z
0!"
0%"
0)"
0-"
01"
05"
09"
0="
0A"
0E"
#64500000
1!
1%
1*
1r
1v
1z
1!"
1%"
1)"
1-"
11"
15"
19"
1="
1A"
1E"
#65000000
0!
0%
0*
0r
0v
0z
0!"
0%"
0)"
0-"
01"
05"
09"
0="
0A"
0E"
#65500000
1!
1%
1*
1r
1v
1z
1!"
1%"
1)"
1-"
11"
15"
19"
1="
1A"
1E"
#66000000
0!
0%
0*
0r
0v
0z
0!"
0%"
0)"
0-"
01"
05"
09"
0="
0A"
0E"
#66500000
1!
1%
1*
1r
1v
1z
1!"
1%"
1)"
1-"
11"
15"
19"
1="
1A"
1E"
#67000000
0!
0%
0*
0r
0v
0z
0!"
0%"
0)"
0-"
01"
05"
09"
0="
0A"
0E"
#67500000
1!
1%
1*
1r
1v
1z
1!"
1%"
1)"
1-"
11"
15"
19"
1="
1A"
1E"
#68000000
0!
0%
0*
0r
0v
0z
0!"
0%"
0)"
0-"
01"
05"
09"
0="
0A"
0E"
#68500000
1!
1%
1*
1r
1v
1z
1!"
1%"
1)"
1-"
11"
15"
19"
1="
1A"
1E"
#69000000
0!
0%
0*
0r
0v
0z
0!"
0%"
0)"
0-"
01"
05"
09"
0="
0A"
0E"
#69500000
1!
1%
1*
1r
1v
1z
1!"
1%"
1)"
1-"
11"
15"
19"
1="
1A"
1E"
#70000000
0!
0%
0*
0r
0v
0z
0!"
0%"
0)"
0-"
01"
05"
09"
0="
0A"
0E"
#70500000
1!
1%
1*
1r
1v
1z
1!"
1%"
1)"
1-"
11"
15"
19"
1="
1A"
1E"
#71000000
0!
0%
0*
0r
0v
0z
0!"
0%"
0)"
0-"
01"
05"
09"
0="
0A"
0E"
#71500000
1!
1%
1*
1r
1v
1z
1!"
1%"
1)"
1-"
11"
15"
19"
1="
1A"
1E"
#72000000
0!
0%
0*
0r
0v
0z
0!"
0%"
0)"
0-"
01"
05"
09"
0="
0A"
0E"
#72500000
1!
1%
1*
1r
1v
1z
1!"
1%"
1)"
1-"
11"
15"
19"
1="
1A"
1E"
#73000000
0!
0%
0*
0r
0v
0z
0!"
0%"
0)"
0-"
01"
05"
09"
0="
0A"
0E"
#73500000
1!
1%
1*
1r
1v
1z
1!"
1%"
1)"
1-"
11"
15"
19"
1="
1A"
1E"
#74000000
0!
0%
0*
0r
0v
0z
0!"
0%"
0)"
0-"
01"
05"
09"
0="
0A"
0E"
#74500000
1!
1%
1*
1r
1v
1z
1!"
1%"
1)"
1-"
11"
15"
19"
1="
1A"
1E"
#75000000
0!
0%
0*
0r
0v
0z
0!"
0%"
0)"
0-"
01"
05"
09"
0="
0A"
0E"
#75500000
1!
1%
1*
1r
1v
1z
1!"
1%"
1)"
1-"
11"
15"
19"
1="
1A"
1E"
#76000000
0!
0%
0*
0r
0v
0z
0!"
0%"
0)"
0-"
01"
05"
09"
0="
0A"
0E"
#76500000
1!
1%
1*
1r
1v
1z
1!"
1%"
1)"
1-"
11"
15"
19"
1="
1A"
1E"
#77000000
0!
0%
0*
0r
0v
0z
0!"
0%"
0)"
0-"
01"
05"
09"
0="
0A"
0E"
#77500000
1!
1%
1*
1r
1v
1z
1!"
1%"
1)"
1-"
11"
15"
19"
1="
1A"
1E"
#78000000
0!
0%
0*
0r
0v
0z
0!"
0%"
0)"
0-"
01"
05"
09"
0="
0A"
0E"
#78500000
1!
1%
1*
1r
1v
1z
1!"
1%"
1)"
1-"
11"
15"
19"
1="
1A"
1E"
#79000000
0!
0%
0*
0r
0v
0z
0!"
0%"
0)"
0-"
01"
05"
09"
0="
0A"
0E"
#79500000
1!
1%
1*
1r
1v
1z
1!"
1%"
1)"
1-"
11"
15"
19"
1="
1A"
1E"
#80000000
0!
0"
b000000000001 #
0%
0&
b000000000001 '
0*
0+
b000000000001 ,
b000000000001 /
b000000000001 0
b000000000001 3
16
19
0;
0>
0@
0C
0E
0H
0J
0M
0O
0R
0T
0W
0Y
0\
0^
0a
0c
0f
0h
0k
0m
0p
0r
0s
b000000000001 t
0v
0w
1x
0z
0{
0|
0!"
0""
0#"
0%"
0&"
0'"
0)"
0*"
0+"
0-"
0."
0/"
01"
02"
03"
05"
06"
07"
09"
0:"
0;"
0="
0>"
0?"
0A"
0B"
0C"
0E"
0F"
0G"
#80500000
1!
1%
b000000000001 )
1*
b000000000001 -
b000000000001 .
b000000000010 /
b000000000001 1
b000000000010 3
b0000000000010 5
17
09
1:
1=
1>
1r
b000000000010 t
b000000000001 u
1v
0x
1y
1z
1|
1!"
1%"
1)"
1-"
11"
15"
19"
1="
1A"
1E"
b000000000001 I"
#81000000
0!
0%
0*
0r
0v
0z
0!"
0%"
0)"
0-"
01"
05"
09"
0="
0A"
0E"
#81500000
1!
1%
b000000000010 )
1*
b000000000010 -
b000000000010 .
b000000000011 /
b000000000010 1
b000000000011 3
b0000000000000 5
07
19
0:
1<
0=
1>
0?
0B
0C
1r
b000000000011 t
b000000000010 u
1v
1x
0y
1z
1|
1}
1!"
0#"
1%"
1)"
1-"
11"
15"
19"
1="
1A"
1E"
b000000000010 I"
#82000000
0!
0%
0*
0r
0v
0z
0!"
0%"
0)"
0-"
01"
05"
09"
0="
0A"
0E"
#82500000
1!
1%
b000000000011 )
1*
b000000000011 -
b000000000011 .
b000000000100 /
b000000000011 1
b000000000100 3
b0000000000110 5
17
09
1:
1=
0>
1?
1B
1C
1r
b000000000100 t
b000000000011 u
1v
0x
1y
1z
0|
1!"
1#"
1%"
1)"
1-"
11"
15"
19"
1="
1A"
1E"
b000000000011 I"
#83000000
0!
0%
0*
0r
0v
0z
0!"
0%"
0)"
0-"
01"
05"
09"
0="
0A"
0E"
#83500000
1!
1%
b000000000100 )
1*
b000000000100 -
b000000000100 .
b000000000101 /
b000000000100 1
b000000000101 3
b0000000000000 5
07
19
0:
0<
0=
0>
0?
1A
0B
1C
0D
0G
0H
1r
b000000000101 t
b000000000100 u
1v
1x
0y
1z
0|
0}
1!"
1#"
1$"
1%"
0'"
1)"
1-"
11"
15"
19"
1="
1A"
1E"
b000000000100 I"
#84000000
0!
0%
0*
0r
0v
0z
0!"
0%"
0)"
0-"
01"
05"
09"
0="
0A"
0E"
#84500000
1!
1%
b000000000101 )
1*
b000000000101 -
b000000000101 .
b000000000110 /
b000000000101 1
b000000000110 3
b0000000000010 5
17
09
1:
1=
1>
1r
b000000000110 t
b000000000101 u
1v
0x
1y
1z
1|
1!"
1%"
1)"
1-"
11"
15"
19"
1="
1A"
1E"
b000000000101 I"
#85000000
0!
0%
0*
0r
0v
0z
0!"
0%"
0)"
0-"
01"
05"
09"
0="
0A"
0E"
#85500000
1!
1%
b000000000110 )
1*
b000000000110 -
b000000000110 .
b000000000111 /
b000000000110 1
b000000000111 3
b0000000000000 5
07
19
0:
1<
0=
1>
0?
0B
1C
0D
0G
0H
1r
b000000000111 t
b000000000110 u
1v
1x
0y
1z
1|
1}
1!"
1#"
1%"
0'"
1)"
1-"
11"
15"
19"
1="
1A"
1E"
b000000000110 I"
#86000000
0!
0%
0*
0r
0v
0z
0!"
0%"
0)"
0-"
01"
05"
09"
0="
0A"
0E"
