vhdl/waveforms/tb_dff.vcd
$date
  Thu May 17 20:54:37 2018
$end
$version
  GHDL v0
$end
$timescale
  1 fs
$end
$var reg 1 ! clk $end
$var reg 1 " rst $end
$var reg 1 # d $end
$var reg 1 $ clk_go $end
$scope module i_dut $end
$var reg 1 % clk_dff $end
$var reg 1 & rst_dff $end
$var reg 1 ' d_dff $end
$var reg 1 ( q_dff $end
$upscope $end
$enddefinitions $end
#0
0!
1"
0#
1$
0%
1&
0'
0(
#50000000
1!
1%
#100000000
0!
0%
#123000000
0"
0&
#150000000
1!
1#
1%
1'
#200000000
0!
0%
#250000000
1!
1%
1(
#300000000
0!
0%
#350000000
1!
1%
#400000000
0!
0%
#450000000
1!
0#
1%
0'
#500000000
0!
0%
#550000000
1!
1%
0(
#600000000
0!
0%
#650000000
1!
1#
1%
1'
#700000000
0!
0%
#750000000
1!
1%
1(
#800000000
0!
0%
#850000000
1!
1%
#900000000
0!
0%
#950000000
1!
1%
#1000000000
0!
0%
#1050000000
1!
1%
#1073000000
1"
1&
0(
#1100000000
0!
0%
#1150000000
1!
0#
1%
0'
