verilog/v/ddfs_tb.vcd
$date
	Fri Jan 18 14:25:27 2019
$end
$version
	Icarus Verilog
$end
$timescale
	1s
$end
$scope module ddfs_tb $end
$var wire 4 ! sine [3:0] $end
$var wire 1 " led $end
$var reg 1 # clk $end
$var reg 8 $ fw [7:0] $end
$var reg 1 % rst_n $end
$var integer 32 & k [31:0] $end
$scope module ddfs $end
$var wire 1 # clk $end
$var wire 8 ' fw [7:0] $end
$var wire 1 " led $end
$var wire 1 % rst_n $end
$var wire 4 ( sine [3:0] $end
$var wire 8 ) pa_to_lut_wire [7:0] $end
$var wire 1 * clk_div_wire $end
$scope module clkdiv $end
$var wire 1 # clk $end
$var wire 2 + fw [1:0] $end
$var wire 1 % rst_n $end
$var wire 1 * sine $end
$var wire 2 , pa_to_lut_wire [1:0] $end
$scope module mylut_clk $end
$var wire 2 - lut_line [1:0] $end
$var reg 1 * lut_data $end
$upscope $end
$scope module phase_acc_clk $end
$var wire 1 # clk $end
$var wire 2 . pa_in [1:0] $end
$var wire 1 % rst_n $end
$var reg 2 / pa_out [1:0] $end
$upscope $end
$upscope $end
$scope module mylut $end
$var wire 8 0 lut_line [7:0] $end
$var reg 4 1 lut_data [3:0] $end
$upscope $end
$scope module phase_acc $end
$var wire 1 * clk $end
$var wire 8 2 pa_in [7:0] $end
$var wire 1 % rst_n $end
$var reg 8 3 pa_out [7:0] $end
$upscope $end
$upscope $end
$upscope $end
$enddefinitions $end
#0
$dumpvars
b0 3
b101 2
b111 1
b0 0
b0 /
b1 .
b0 -
b0 ,
b1 +
1*
b0 )
b111 (
b101 '
b0 &
0%
b101 $
1#
0"
b111 !
$end
#1
0#
#2
1#
#3
0#
#4
1#
#5
0#
#6
1#
#7
0#
#8
1#
#9
0#
#10
1#
b1 &
#11
0#
#12
1#
#13
0#
#14
1#
#15
0#
#16
1#
#17
0#
#18
1#
#19
0#
#20
1#
b10 &
#21
0#
#22
1#
#23
0#
#24
1#
#25
0#
#26
1#
#27
0#
#28
1#
#29
0#
#30
1#
b11 &
#31
0#
#32
1#
#33
0#
#34
1#
#35
0#
#36
b1 ,
b1 -
b1 /
1#
1%
#37
0#
#38
0*
b10 ,
b10 -
b10 /
1#
#39
0#
#40
b11 ,
b11 -
b11 /
1#
b100 &
#41
0#
#42
b101 )
b101 0
b101 3
1*
b0 ,
b0 -
b0 /
1#
#43
0#
#44
b1 ,
b1 -
b1 /
1#
#45
0#
#46
0*
b10 ,
b10 -
b10 /
1#
#47
0#
#48
b11 ,
b11 -
b11 /
1#
#49
0#
#50
1"
b1000 !
b1000 (
b1000 1
b1010 )
b1010 0
b1010 3
1*
b0 ,
b0 -
b0 /
1#
b101 &
#51
0#
#52
b1 ,
b1 -
b1 /
1#
#53
0#
#54
0*
b10 ,
b10 -
b10 /
1#
#55
0#
#56
b11 ,
b11 -
b11 /
1#
#57
0#
#58
0"
b1001 !
b1001 (
b1001 1
b1111 )
b1111 0
b1111 3
1*
b0 ,
b0 -
b0 /
1#
#59
0#
#60
b1 ,
b1 -
b1 /
1#
b110 &
#61
0#
#62
0*
b10 ,
b10 -
b10 /
1#
#63
0#
#64
b11 ,
b11 -
b11 /
1#
#65
0#
#66
1"
b1010 !
b1010 (
b1010 1
b10100 )
b10100 0
b10100 3
1*
b0 ,
b0 -
b0 /
1#
#67
0#
#68
b1 ,
b1 -
b1 /
1#
#69
0#
#70
0*
b10 ,
b10 -
b10 /
1#
b111 &
#71
0#
#72
b11 ,
b11 -
b11 /
1#
#73
0#
#74
0"
b1011 !
b1011 (
b1011 1
b11001 )
b11001 0
b11001 3
1*
b0 ,
b0 -
b0 /
1#
#75
0#
#76
b1 ,
b1 -
b1 /
1#
#77
0#
#78
0*
b10 ,
b10 -
b10 /
1#
#79
0#
#80
b11 ,
b11 -
b11 /
1#
b1000 &
#81
0#
#82
b11110 )
b11110 0
b11110 3
1*
b0 ,
b0 -
b0 /
1#
#83
0#
#84
b1 ,
b1 -
b1 /
1#
#85
0#
#86
0*
b10 ,
b10 -
b10 /
1#
#87
0#
#88
b11 ,
b11 -
b11 /
1#
#89
0#
#90
1"
b1100 !
b1100 (
b1100 1
b100011 )
b100011 0
b100011 3
1*
b0 ,
b0 -
b0 /
1#
b1001 &
#91
0#
#92
b1 ,
b1 -
b1 /
1#
#93
0#
#94
0*
b10 ,
b10 -
b10 /
1#
#95
0#
#96
b11 ,
b11 -
b11 /
1#
#97
0#
#98
b101000 )
b101000 0
b101000 3
1*
b0 ,
b0 -
b0 /
1#
#99
0#
#100
b1 ,
b1 -
b1 /
1#
b1010 &
#101
0#
#102
0*
b10 ,
b10 -
b10 /
1#
#103
0#
#104
b11 ,
b11 -
b11 /
1#
#105
0#
#106
0"
b1101 !
b1101 (
b1101 1
b101101 )
b101101 0
b101101 3
1*
b0 ,
b0 -
b0 /
1#
#107
0#
#108
b1 ,
b1 -
b1 /
1#
#109
0#
#110
0*
b10 ,
b10 -
b10 /
1#
b1011 &
#111
0#
#112
b11 ,
b11 -
b11 /
1#
#113
0#
#114
b110010 )
b110010 0
b110010 3
1*
b0 ,
b0 -
b0 /
1#
#115
0#
#116
b1 ,
b1 -
b1 /
1#
#117
0#
#118
0*
b10 ,
b10 -
b10 /
1#
#119
0#
#120
b11 ,
b11 -
b11 /
1#
b1100 &
#121
0#
#122
b110111 )
b110111 0
b110111 3
1*
b0 ,
b0 -
b0 /
1#
#123
0#
#124
b1 ,
b1 -
b1 /
1#
#125
0#
#126
0*
b10 ,
b10 -
b10 /
1#
#127
0#
#128
b11 ,
b11 -
b11 /
1#
#129
0#
#130
b111100 )
b111100 0
b111100 3
1*
b0 ,
b0 -
b0 /
1#
b1101 &
#131
0#
#132
b1 ,
b1 -
b1 /
1#
#133
0#
#134
0*
b10 ,
b10 -
b10 /
1#
#135
0#
#136
b11 ,
b11 -
b11 /
1#
#137
0#
#138
b1000001 )
b1000001 0
b1000001 3
1*
b0 ,
b0 -
b0 /
1#
#139
0#
#140
b1 ,
b1 -
b1 /
1#
b1110 &
#141
0#
#142
0*
b10 ,
b10 -
b10 /
1#
#143
0#
#144
b11 ,
b11 -
b11 /
1#
#145
0#
#146
b1000110 )
b1000110 0
b1000110 3
1*
b0 ,
b0 -
b0 /
1#
#147
0#
#148
b1 ,
b1 -
b1 /
1#
#149
0#
#150
0*
b10 ,
b10 -
b10 /
1#
b1111 &
#151
0#
#152
b11 ,
b11 -
b11 /
1#
#153
0#
#154
b1001011 )
b1001011 0
b1001011 3
1*
b0 ,
b0 -
b0 /
1#
#155
0#
#156
b1 ,
b1 -
b1 /
1#
#157
0#
#158
0*
b10 ,
b10 -
b10 /
1#
#159
0#
#160
b11 ,
b11 -
b11 /
1#
b10000 &
#161
0#
#162
b1010000 )
b1010000 0
b1010000 3
1*
b0 ,
b0 -
b0 /
1#
#163
0#
#164
b1 ,
b1 -
b1 /
1#
#165
0#
#166
0*
b10 ,
b10 -
b10 /
1#
#167
0#
#168
b11 ,
b11 -
b11 /
1#
#169
0#
#170
b1010101 )
b1010101 0
b1010101 3
1*
b0 ,
b0 -
b0 /
1#
b10001 &
#171
0#
#172
b1 ,
b1 -
b1 /
1#
#173
0#
#174
0*
b10 ,
b10 -
b10 /
1#
#175
0#
#176
b11 ,
b11 -
b11 /
1#
#177
0#
#178
1"
b1100 !
b1100 (
b1100 1
b1011010 )
b1011010 0
b1011010 3
1*
b0 ,
b0 -
b0 /
1#
#179
0#
#180
b1 ,
b1 -
b1 /
1#
b10010 &
#181
0#
#182
0*
b10 ,
b10 -
b10 /
1#
#183
0#
#184
b11 ,
b11 -
b11 /
1#
#185
0#
#186
b1011111 )
b1011111 0
b1011111 3
1*
b0 ,
b0 -
b0 /
1#
#187
0#
#188
b1 ,
b1 -
b1 /
1#
#189
0#
#190
0*
b10 ,
b10 -
b10 /
1#
b10011 &
#191
0#
#192
b11 ,
b11 -
b11 /
1#
#193
0#
#194
0"
b1011 !
b1011 (
b1011 1
b1100100 )
b1100100 0
b1100100 3
1*
b0 ,
b0 -
b0 /
1#
#195
0#
#196
b1 ,
b1 -
b1 /
1#
#197
0#
#198
0*
b10 ,
b10 -
b10 /
1#
#199
0#
#200
b11 ,
b11 -
b11 /
1#
b10100 &
#201
0#
#202
1"
b1010 !
b1010 (
b1010 1
b1101001 )
b1101001 0
b1101001 3
1*
b0 ,
b0 -
b0 /
1#
#203
0#
#204
b1 ,
b1 -
b1 /
1#
#205
0#
#206
0*
b10 ,
b10 -
b10 /
1#
#207
0#
#208
b11 ,
b11 -
b11 /
1#
#209
0#
#210
0"
b1001 !
b1001 (
b1001 1
b1101110 )
b1101110 0
b1101110 3
1*
b0 ,
b0 -
b0 /
1#
b10101 &
#211
0#
#212
b1 ,
b1 -
b1 /
1#
#213
0#
#214
0*
b10 ,
b10 -
b10 /
1#
#215
0#
#216
b11 ,
b11 -
b11 /
1#
#217
0#
#218
b1110011 )
b1110011 0
b1110011 3
1*
b0 ,
b0 -
b0 /
1#
#219
0#
#220
b1 ,
b1 -
b1 /
1#
b10110 &
#221
0#
#222
0*
b10 ,
b10 -
b10 /
1#
#223
0#
#224
b11 ,
b11 -
b11 /
1#
#225
0#
#226
1"
b1000 !
b1000 (
b1000 1
b1111000 )
b1111000 0
b1111000 3
1*
b0 ,
b0 -
b0 /
1#
#227
0#
#228
b1 ,
b1 -
b1 /
1#
#229
0#
#230
0*
b10 ,
b10 -
b10 /
1#
b10111 &
#231
0#
#232
b11 ,
b11 -
b11 /
1#
#233
0#
#234
0"
b111 !
b111 (
b111 1
b1111101 )
b1111101 0
b1111101 3
1*
b0 ,
b0 -
b0 /
1#
#235
0#
#236
b1 ,
b1 -
b1 /
1#
#237
0#
#238
0*
b10 ,
b10 -
b10 /
1#
#239
0#
#240
b11 ,
b11 -
b11 /
1#
b11000 &
#241
0#
#242
1"
b110 !
b110 (
b110 1
b10000010 )
b10000010 0
b10000010 3
1*
b0 ,
b0 -
b0 /
1#
#243
0#
#244
b1 ,
b1 -
b1 /
1#
#245
0#
#246
0*
b10 ,
b10 -
b10 /
1#
#247
0#
#248
b11 ,
b11 -
b11 /
1#
#249
0#
#250
0"
b101 !
b101 (
b101 1
b10000111 )
b10000111 0
b10000111 3
1*
b0 ,
b0 -
b0 /
1#
b11001 &
#251
0#
#252
b1 ,
b1 -
b1 /
1#
#253
0#
#254
0*
b10 ,
b10 -
b10 /
1#
#255
0#
#256
b11 ,
b11 -
b11 /
1#
#257
0#
#258
1"
b100 !
b100 (
b100 1
b10001100 )
b10001100 0
b10001100 3
1*
b0 ,
b0 -
b0 /
1#
#259
0#
#260
b1 ,
b1 -
b1 /
1#
b11010 &
#261
0#
#262
0*
b10 ,
b10 -
b10 /
1#
#263
0#
#264
b11 ,
b11 -
b11 /
1#
#265
0#
#266
b10010001 )
b10010001 0
b10010001 3
1*
b0 ,
b0 -
b0 /
1#
#267
0#
#268
b1 ,
b1 -
b1 /
1#
#269
0#
#270
0*
b10 ,
b10 -
b10 /
1#
b11011 &
#271
0#
#272
b11 ,
b11 -
b11 /
1#
#273
0#
#274
0"
b11 !
b11 (
b11 1
b10010110 )
b10010110 0
b10010110 3
1*
b0 ,
b0 -
b0 /
1#
#275
0#
#276
b1 ,
b1 -
b1 /
1#
#277
0#
#278
0*
b10 ,
b10 -
b10 /
1#
#279
0#
#280
b11 ,
b11 -
b11 /
1#
b11100 &
#281
0#
#282
1"
b10 !
b10 (
b10 1
b10011011 )
b10011011 0
b10011011 3
1*
b0 ,
b0 -
b0 /
1#
#283
0#
#284
b1 ,
b1 -
b1 /
1#
#285
0#
#286
0*
b10 ,
b10 -
b10 /
1#
#287
0#
#288
b11 ,
b11 -
b11 /
1#
#289
0#
#290
b10100000 )
b10100000 0
b10100000 3
1*
b0 ,
b0 -
b0 /
1#
b11101 &
#291
0#
#292
b1 ,
b1 -
b1 /
1#
#293
0#
#294
0*
b10 ,
b10 -
b10 /
1#
#295
0#
#296
b11 ,
b11 -
b11 /
1#
#297
0#
#298
0"
b1 !
b1 (
b1 1
b10100101 )
b10100101 0
b10100101 3
1*
b0 ,
b0 -
b0 /
1#
#299
0#
#300
b1 ,
b1 -
b1 /
1#
b11110 &
#301
0#
#302
0*
b10 ,
b10 -
b10 /
1#
#303
0#
#304
b11 ,
b11 -
b11 /
1#
#305
0#
#306
1"
b0 !
b0 (
b0 1
b10101010 )
b10101010 0
b10101010 3
1*
b0 ,
b0 -
b0 /
1#
#307
0#
#308
b1 ,
b1 -
b1 /
1#
#309
0#
#310
0*
b10 ,
b10 -
b10 /
1#
b11111 &
#311
0#
#312
b11 ,
b11 -
b11 /
1#
#313
0#
#314
b10101111 )
b10101111 0
b10101111 3
1*
b0 ,
b0 -
b0 /
1#
#315
0#
#316
b1 ,
b1 -
b1 /
1#
#317
0#
#318
0*
b10 ,
b10 -
b10 /
1#
#319
0#
#320
b11 ,
b11 -
b11 /
1#
b100000 &
#321
0#
#322
b10110100 )
b10110100 0
b10110100 3
1*
b0 ,
b0 -
b0 /
1#
#323
0#
#324
b1 ,
b1 -
b1 /
1#
#325
0#
#326
0*
b10 ,
b10 -
b10 /
1#
#327
0#
#328
b11 ,
b11 -
b11 /
1#
#329
0#
#330
b10111001 )
b10111001 0
b10111001 3
1*
b0 ,
b0 -
b0 /
1#
b100001 &
#331
0#
#332
b1 ,
b1 -
b1 /
1#
#333
0#
#334
0*
b10 ,
b10 -
b10 /
1#
#335
0#
#336
b11 ,
b11 -
b11 /
1#
#337
0#
#338
b10111110 )
b10111110 0
b10111110 3
1*
b0 ,
b0 -
b0 /
1#
#339
0#
#340
b1 ,
b1 -
b1 /
1#
b100010 &
#341
0#
#342
0*
b10 ,
b10 -
b10 /
1#
#343
0#
#344
b11 ,
b11 -
b11 /
1#
#345
0#
#346
b11000011 )
b11000011 0
b11000011 3
1*
b0 ,
b0 -
b0 /
1#
#347
0#
#348
b1 ,
b1 -
b1 /
1#
#349
0#
#350
0*
b10 ,
b10 -
b10 /
1#
b100011 &
#351
0#
#352
b11 ,
b11 -
b11 /
1#
#353
0#
#354
b11001000 )
b11001000 0
b11001000 3
1*
b0 ,
b0 -
b0 /
1#
#355
0#
#356
b1 ,
b1 -
b1 /
1#
#357
0#
#358
0*
b10 ,
b10 -
b10 /
1#
#359
0#
#360
b11 ,
b11 -
b11 /
1#
b100100 &
#361
0#
#362
b11001101 )
b11001101 0
b11001101 3
1*
b0 ,
b0 -
b0 /
1#
#363
0#
#364
b1 ,
b1 -
b1 /
1#
#365
0#
#366
0*
b10 ,
b10 -
b10 /
1#
#367
0#
#368
b11 ,
b11 -
b11 /
1#
#369
0#
#370
b11010010 )
b11010010 0
b11010010 3
1*
b0 ,
b0 -
b0 /
1#
b100101 &
#371
0#
#372
b1 ,
b1 -
b1 /
1#
#373
0#
#374
0*
b10 ,
b10 -
b10 /
1#
#375
0#
#376
b11 ,
b11 -
b11 /
1#
#377
0#
#378
0"
b1 !
b1 (
b1 1
b11010111 )
b11010111 0
b11010111 3
1*
b0 ,
b0 -
b0 /
1#
#379
0#
#380
b1 ,
b1 -
b1 /
1#
b100110 &
#381
0#
#382
0*
b10 ,
b10 -
b10 /
1#
#383
0#
#384
b11 ,
b11 -
b11 /
1#
#385
0#
#386
b11011100 )
b11011100 0
b11011100 3
1*
b0 ,
b0 -
b0 /
1#
#387
0#
#388
b1 ,
b1 -
b1 /
1#
#389
0#
#390
0*
b10 ,
b10 -
b10 /
1#
b100111 &
#391
0#
#392
b11 ,
b11 -
b11 /
1#
#393
0#
#394
1"
b10 !
b10 (
b10 1
b11100001 )
b11100001 0
b11100001 3
1*
b0 ,
b0 -
b0 /
1#
#395
0#
#396
b1 ,
b1 -
b1 /
1#
#397
0#
#398
0*
b10 ,
b10 -
b10 /
1#
#399
0#
#400
b11 ,
b11 -
b11 /
1#
b101000 &
#401
0#
#402
b11100110 )
b11100110 0
b11100110 3
1*
b0 ,
b0 -
b0 /
1#
#403
0#
#404
b1 ,
b1 -
b1 /
1#
#405
0#
#406
0*
b10 ,
b10 -
b10 /
1#
#407
0#
#408
b11 ,
b11 -
b11 /
1#
#409
0#
#410
0"
b11 !
b11 (
b11 1
b11101011 )
b11101011 0
b11101011 3
1*
b0 ,
b0 -
b0 /
1#
b101001 &
#411
0#
#412
b1 ,
b1 -
b1 /
1#
#413
0#
#414
0*
b10 ,
b10 -
b10 /
1#
#415
0#
#416
b11 ,
b11 -
b11 /
1#
#417
0#
#418
1"
b100 !
b100 (
b100 1
b11110000 )
b11110000 0
b11110000 3
1*
b0 ,
b0 -
b0 /
1#
#419
0#
#420
b1 ,
b1 -
b1 /
1#
b101010 &
#421
0#
#422
0*
b10 ,
b10 -
b10 /
1#
#423
0#
#424
b11 ,
b11 -
b11 /
1#
#425
0#
#426
0"
b101 !
b101 (
b101 1
b11110101 )
b11110101 0
b11110101 3
1*
b0 ,
b0 -
b0 /
1#
#427
0#
#428
b1 ,
b1 -
b1 /
1#
#429
0#
#430
0*
b10 ,
b10 -
b10 /
1#
b101011 &
#431
0#
#432
b11 ,
b11 -
b11 /
1#
#433
0#
#434
b11111010 )
b11111010 0
b11111010 3
1*
b0 ,
b0 -
b0 /
1#
#435
0#
#436
b1 ,
b1 -
b1 /
1#
#437
0#
#438
0*
b10 ,
b10 -
b10 /
1#
#439
0#
#440
b11 ,
b11 -
b11 /
1#
b101100 &
#441
0#
#442
1"
b110 !
b110 (
b110 1
b11111111 )
b11111111 0
b11111111 3
1*
b0 ,
b0 -
b0 /
1#
#443
0#
#444
b1 ,
b1 -
b1 /
1#
#445
0#
#446
0*
b10 ,
b10 -
b10 /
1#
#447
0#
#448
b11 ,
b11 -
b11 /
1#
#449
0#
#450
0"
b111 !
b111 (
b111 1
b100 )
b100 0
b100 3
1*
b0 ,
b0 -
b0 /
1#
b101101 &
#451
0#
#452
b1 ,
b1 -
b1 /
1#
#453
0#
#454
0*
b10 ,
b10 -
b10 /
1#
#455
0#
#456
b11 ,
b11 -
b11 /
1#
#457
0#
#458
1"
b1000 !
b1000 (
b1000 1
b1001 )
b1001 0
b1001 3
1*
b0 ,
b0 -
b0 /
1#
#459
0#
#460
b1 ,
b1 -
b1 /
1#
b101110 &
#461
0#
#462
0*
b10 ,
b10 -
b10 /
1#
#463
0#
#464
b11 ,
b11 -
b11 /
1#
#465
0#
#466
0"
b1001 !
b1001 (
b1001 1
b1110 )
b1110 0
b1110 3
1*
b0 ,
b0 -
b0 /
1#
#467
0#
#468
b1 ,
b1 -
b1 /
1#
#469
0#
#470
0*
b10 ,
b10 -
b10 /
1#
b101111 &
#471
0#
#472
b11 ,
b11 -
b11 /
1#
#473
0#
#474
1"
b1010 !
b1010 (
b1010 1
b10011 )
b10011 0
b10011 3
1*
b0 ,
b0 -
b0 /
1#
#475
0#
#476
b1 ,
b1 -
b1 /
1#
#477
0#
#478
0*
b10 ,
b10 -
b10 /
1#
#479
0#
#480
b11 ,
b11 -
b11 /
1#
b110000 &
#481
0#
#482
b11000 )
b11000 0
b11000 3
1*
b0 ,
b0 -
b0 /
1#
#483
0#
#484
b1 ,
b1 -
b1 /
1#
#485
0#
#486
0*
b10 ,
b10 -
b10 /
1#
#487
0#
#488
b11 ,
b11 -
b11 /
1#
#489
0#
#490
0"
b1011 !
b1011 (
b1011 1
b11101 )
b11101 0
b11101 3
1*
b0 ,
b0 -
b0 /
1#
b110001 &
#491
0#
#492
b1 ,
b1 -
b1 /
1#
#493
0#
#494
0*
b10 ,
b10 -
b10 /
1#
#495
0#
#496
b11 ,
b11 -
b11 /
1#
#497
0#
#498
1"
b1100 !
b1100 (
b1100 1
b100010 )
b100010 0
b100010 3
1*
b0 ,
b0 -
b0 /
1#
#499
0#
#500
b1 ,
b1 -
b1 /
1#
b110010 &
#501
0#
#502
0*
b10 ,
b10 -
b10 /
1#
#503
0#
#504
b11 ,
b11 -
b11 /
1#
#505
0#
#506
b100111 )
b100111 0
b100111 3
1*
b0 ,
b0 -
b0 /
1#
#507
0#
#508
b1 ,
b1 -
b1 /
1#
#509
0#
#510
0*
b10 ,
b10 -
b10 /
1#
b110011 &
#511
0#
#512
b11 ,
b11 -
b11 /
1#
#513
0#
#514
0"
b1101 !
b1101 (
b1101 1
b101100 )
b101100 0
b101100 3
1*
b0 ,
b0 -
b0 /
1#
#515
0#
#516
b1 ,
b1 -
b1 /
1#
#517
0#
#518
0*
b10 ,
b10 -
b10 /
1#
#519
0#
#520
b11 ,
b11 -
b11 /
1#
b110100 &
#521
0#
#522
b110001 )
b110001 0
b110001 3
1*
b0 ,
b0 -
b0 /
1#
#523
0#
#524
b1 ,
b1 -
b1 /
1#
#525
0#
#526
0*
b10 ,
b10 -
b10 /
1#
#527
0#
#528
b11 ,
b11 -
b11 /
1#
#529
0#
#530
b110110 )
b110110 0
b110110 3
1*
b0 ,
b0 -
b0 /
1#
b110101 &
#531
0#
#532
b1 ,
b1 -
b1 /
1#
#533
0#
#534
0*
b10 ,
b10 -
b10 /
1#
#535
0#
#536
b11 ,
b11 -
b11 /
1#
#537
0#
#538
b111011 )
b111011 0
b111011 3
1*
b0 ,
b0 -
b0 /
1#
#539
0#
#540
b1 ,
b1 -
b1 /
1#
b110110 &
#541
0#
#542
0*
b10 ,
b10 -
b10 /
1#
#543
0#
#544
b11 ,
b11 -
b11 /
1#
#545
0#
#546
1"
b1110 !
b1110 (
b1110 1
b1000000 )
b1000000 0
b1000000 3
1*
b0 ,
b0 -
b0 /
1#
#547
0#
#548
b1 ,
b1 -
b1 /
1#
#549
0#
#550
0*
b10 ,
b10 -
b10 /
1#
b110111 &
#551
0#
#552
b11 ,
b11 -
b11 /
1#
#553
0#
#554
0"
b1101 !
b1101 (
b1101 1
b1000101 )
b1000101 0
b1000101 3
1*
b0 ,
b0 -
b0 /
1#
#555
0#
#556
b1 ,
b1 -
b1 /
1#
#557
0#
#558
0*
b10 ,
b10 -
b10 /
1#
#559
0#
#560
b11 ,
b11 -
b11 /
1#
b111000 &
#561
0#
#562
b1001010 )
b1001010 0
b1001010 3
1*
b0 ,
b0 -
b0 /
1#
#563
0#
#564
b1 ,
b1 -
b1 /
1#
#565
0#
#566
0*
b10 ,
b10 -
b10 /
1#
#567
0#
#568
b11 ,
b11 -
b11 /
1#
#569
0#
#570
b1001111 )
b1001111 0
b1001111 3
1*
b0 ,
b0 -
b0 /
1#
b111001 &
#571
0#
#572
b1 ,
b1 -
b1 /
1#
#573
0#
#574
0*
b10 ,
b10 -
b10 /
1#
#575
0#
#576
b11 ,
b11 -
b11 /
1#
#577
0#
#578
b1010100 )
b1010100 0
b1010100 3
1*
b0 ,
b0 -
b0 /
1#
#579
0#
#580
b1 ,
b1 -
b1 /
1#
b111010 &
#581
0#
#582
0*
b10 ,
b10 -
b10 /
1#
#583
0#
#584
b11 ,
b11 -
b11 /
1#
#585
0#
#586
1"
b1100 !
b1100 (
b1100 1
b1011001 )
b1011001 0
b1011001 3
1*
b0 ,
b0 -
b0 /
1#
#587
0#
#588
b1 ,
b1 -
b1 /
1#
#589
0#
#590
0*
b10 ,
b10 -
b10 /
1#
b111011 &
#591
0#
#592
b11 ,
b11 -
b11 /
1#
#593
0#
#594
b1011110 )
b1011110 0
b1011110 3
1*
b0 ,
b0 -
b0 /
1#
#595
0#
#596
b1 ,
b1 -
b1 /
1#
#597
0#
#598
0*
b10 ,
b10 -
b10 /
1#
#599
0#
#600
b11 ,
b11 -
b11 /
1#
b111100 &
#601
0#
#602
0"
b1011 !
b1011 (
b1011 1
b1100011 )
b1100011 0
b1100011 3
1*
b0 ,
b0 -
b0 /
1#
#603
0#
#604
b1 ,
b1 -
b1 /
1#
#605
0#
#606
0*
b10 ,
b10 -
b10 /
1#
#607
0#
#608
b11 ,
b11 -
b11 /
1#
#609
0#
#610
1"
b1010 !
b1010 (
b1010 1
b1101000 )
b1101000 0
b1101000 3
1*
b0 ,
b0 -
b0 /
1#
b111101 &
#611
0#
#612
b1 ,
b1 -
b1 /
1#
#613
0#
#614
0*
b10 ,
b10 -
b10 /
1#
#615
0#
#616
b11 ,
b11 -
b11 /
1#
#617
0#
#618
b1101101 )
b1101101 0
b1101101 3
1*
b0 ,
b0 -
b0 /
1#
#619
0#
#620
b1 ,
b1 -
b1 /
1#
b111110 &
#621
0#
#622
0*
b10 ,
b10 -
b10 /
1#
#623
0#
#624
b11 ,
b11 -
b11 /
1#
#625
0#
#626
0"
b1001 !
b1001 (
b1001 1
b1110010 )
b1110010 0
b1110010 3
1*
b0 ,
b0 -
b0 /
1#
#627
0#
#628
b1 ,
b1 -
b1 /
1#
#629
0#
#630
0*
b10 ,
b10 -
b10 /
1#
b111111 &
#631
0#
#632
b11 ,
b11 -
b11 /
1#
#633
0#
#634
1"
b1000 !
b1000 (
b1000 1
b1110111 )
b1110111 0
b1110111 3
1*
b0 ,
b0 -
b0 /
1#
#635
0#
#636
b1 ,
b1 -
b1 /
1#
#637
0#
#638
0*
b10 ,
b10 -
b10 /
1#
#639
0#
#640
b11 ,
b11 -
b11 /
1#
b1000000 &
#641
0#
#642
0"
b111 !
b111 (
b111 1
b1111100 )
b1111100 0
b1111100 3
1*
b0 ,
b0 -
b0 /
1#
#643
0#
#644
b1 ,
b1 -
b1 /
1#
#645
0#
#646
0*
b10 ,
b10 -
b10 /
1#
#647
0#
#648
b11 ,
b11 -
b11 /
1#
#649
0#
#650
1"
b110 !
b110 (
b110 1
b10000001 )
b10000001 0
b10000001 3
1*
b0 ,
b0 -
b0 /
1#
b1000001 &
#651
0#
#652
b1 ,
b1 -
b1 /
1#
#653
0#
#654
0*
b10 ,
b10 -
b10 /
1#
#655
0#
#656
b11 ,
b11 -
b11 /
1#
#657
0#
#658
0"
b101 !
b101 (
b101 1
b10000110 )
b10000110 0
b10000110 3
1*
b0 ,
b0 -
b0 /
1#
#659
0#
#660
b1 ,
b1 -
b1 /
1#
b1000010 &
#661
0#
#662
0*
b10 ,
b10 -
b10 /
1#
#663
0#
#664
b11 ,
b11 -
b11 /
1#
#665
0#
#666
b10001011 )
b10001011 0
b10001011 3
1*
b0 ,
b0 -
b0 /
1#
#667
0#
#668
b1 ,
b1 -
b1 /
1#
#669
0#
#670
0*
b10 ,
b10 -
b10 /
1#
b1000011 &
#671
0#
#672
b11 ,
b11 -
b11 /
1#
#673
0#
#674
1"
b100 !
b100 (
b100 1
b10010000 )
b10010000 0
b10010000 3
1*
b0 ,
b0 -
b0 /
1#
#675
0#
#676
b1 ,
b1 -
b1 /
1#
#677
0#
#678
0*
b10 ,
b10 -
b10 /
1#
#679
0#
#680
b11 ,
b11 -
b11 /
1#
b1000100 &
#681
0#
#682
0"
b11 !
b11 (
b11 1
b10010101 )
b10010101 0
b10010101 3
1*
b0 ,
b0 -
b0 /
1#
#683
0#
#684
b1 ,
b1 -
b1 /
1#
#685
0#
#686
0*
b10 ,
b10 -
b10 /
1#
#687
0#
#688
b11 ,
b11 -
b11 /
1#
#689
0#
#690
1"
b10 !
b10 (
b10 1
b10011010 )
b10011010 0
b10011010 3
1*
b0 ,
b0 -
b0 /
1#
b1000101 &
#691
0#
#692
b1 ,
b1 -
b1 /
1#
#693
0#
#694
0*
b10 ,
b10 -
b10 /
1#
#695
0#
#696
b11 ,
b11 -
b11 /
1#
#697
0#
#698
b10011111 )
b10011111 0
b10011111 3
1*
b0 ,
b0 -
b0 /
1#
#699
0#
#700
b1 ,
b1 -
b1 /
1#
b1000110 &
#701
0#
#702
0*
b10 ,
b10 -
b10 /
1#
#703
0#
#704
b11 ,
b11 -
b11 /
1#
#705
0#
#706
0"
b1 !
b1 (
b1 1
b10100100 )
b10100100 0
b10100100 3
1*
b0 ,
b0 -
b0 /
1#
#707
0#
#708
b1 ,
b1 -
b1 /
1#
#709
0#
#710
0*
b10 ,
b10 -
b10 /
1#
b1000111 &
#711
0#
#712
b11 ,
b11 -
b11 /
1#
#713
0#
#714
b10101001 )
b10101001 0
b10101001 3
1*
b0 ,
b0 -
b0 /
1#
#715
0#
#716
b1 ,
b1 -
b1 /
1#
#717
0#
#718
0*
b10 ,
b10 -
b10 /
1#
#719
0#
#720
b11 ,
b11 -
b11 /
1#
b1001000 &
#721
0#
#722
1"
b0 !
b0 (
b0 1
b10101110 )
b10101110 0
b10101110 3
1*
b0 ,
b0 -
b0 /
1#
#723
0#
#724
b1 ,
b1 -
b1 /
1#
#725
0#
#726
0*
b10 ,
b10 -
b10 /
1#
#727
0#
#728
b11 ,
b11 -
b11 /
1#
#729
0#
#730
b10110011 )
b10110011 0
b10110011 3
1*
b0 ,
b0 -
b0 /
1#
b1001001 &
#731
0#
#732
b1 ,
b1 -
b1 /
1#
#733
0#
#734
0*
b10 ,
b10 -
b10 /
1#
#735
0#
#736
b11 ,
b11 -
b11 /
1#
#737
0#
#738
b10111000 )
b10111000 0
b10111000 3
1*
b0 ,
b0 -
b0 /
1#
#739
0#
#740
b1 ,
b1 -
b1 /
1#
b1001010 &
#741
0#
#742
0*
b10 ,
b10 -
b10 /
1#
#743
0#
#744
b11 ,
b11 -
b11 /
1#
#745
0#
#746
b10111101 )
b10111101 0
b10111101 3
1*
b0 ,
b0 -
b0 /
1#
#747
0#
#748
b1 ,
b1 -
b1 /
1#
#749
0#
#750
0*
b10 ,
b10 -
b10 /
1#
b1001011 &
#751
0#
#752
b11 ,
b11 -
b11 /
1#
#753
0#
#754
b11000010 )
b11000010 0
b11000010 3
1*
b0 ,
b0 -
b0 /
1#
#755
0#
#756
b1 ,
b1 -
b1 /
1#
#757
0#
#758
0*
b10 ,
b10 -
b10 /
1#
#759
0#
#760
b11 ,
b11 -
b11 /
1#
b1001100 &
#761
0#
#762
b11000111 )
b11000111 0
b11000111 3
1*
b0 ,
b0 -
b0 /
1#
#763
0#
