verilog/v/pa_tb.vcd
$date
	Fri Jan 18 13:31:50 2019
$end
$version
	Icarus Verilog
$end
$timescale
	1s
$end
$scope module pa_tb $end
$var wire 12 ! pa_out [11:0] $end
$var reg 1 " clk $end
$var reg 12 # pa_in [11:0] $end
$var reg 1 $ rst_n $end
$var integer 32 % k [31:0] $end
$scope module pa $end
$var wire 1 " clk $end
$var wire 12 & pa_in [11:0] $end
$var wire 1 $ rst_n $end
$var reg 12 ' pa_out [11:0] $end
$upscope $end
$upscope $end
$enddefinitions $end
#0
$dumpvars
b0 '
b10 &
b0 %
0$
b10 #
1"
b0 !
$end
#1
0"
#2
1"
#3
0"
#4
1"
#5
0"
#6
1"
#7
0"
#8
1"
#9
0"
#10
1"
b1 %
#11
0"
#12
1"
#13
0"
#14
1"
#15
0"
#16
1"
#17
0"
#18
1"
#19
0"
#20
1"
b10 %
#21
0"
#22
1"
#23
0"
#24
1"
#25
0"
#26
1"
#27
0"
#28
1"
#29
0"
#30
1"
b11 %
#31
0"
#32
1"
#33
0"
#34
1"
#35
0"
#36
b10 !
b10 '
1"
1$
#37
0"
#38
b100 !
b100 '
1"
#39
0"
#40
b110 !
b110 '
1"
b100 %
#41
0"
#42
b1000 !
b1000 '
1"
#43
0"
#44
b1010 !
b1010 '
1"
#45
0"
#46
b1100 !
b1100 '
1"
#47
0"
#48
b1110 !
b1110 '
1"
#49
0"
#50
b10000 !
b10000 '
1"
b101 %
#51
0"
#52
b10010 !
b10010 '
1"
#53
0"
#54
b10100 !
b10100 '
1"
#55
0"
#56
b10110 !
b10110 '
1"
#57
0"
#58
b11000 !
b11000 '
1"
#59
0"
#60
b11010 !
b11010 '
1"
b110 %
#61
0"
#62
b11100 !
b11100 '
1"
#63
0"
#64
b11110 !
b11110 '
1"
#65
0"
#66
b100000 !
b100000 '
1"
#67
0"
#68
b100010 !
b100010 '
1"
#69
0"
#70
b100100 !
b100100 '
1"
b111 %
#71
0"
#72
b100110 !
b100110 '
1"
#73
0"
#74
b101000 !
b101000 '
1"
#75
0"
#76
b101010 !
b101010 '
1"
#77
0"
#78
b101100 !
b101100 '
1"
#79
0"
#80
b101110 !
b101110 '
1"
b1000 %
#81
0"
#82
b110000 !
b110000 '
1"
#83
0"
#84
b110010 !
b110010 '
1"
#85
0"
#86
b110100 !
b110100 '
1"
#87
0"
#88
b110110 !
b110110 '
1"
#89
0"
#90
b111000 !
b111000 '
1"
b1001 %
#91
0"
#92
b111010 !
b111010 '
1"
#93
0"
#94
b111100 !
b111100 '
1"
#95
0"
#96
b111110 !
b111110 '
1"
#97
0"
#98
b1000000 !
b1000000 '
1"
#99
0"
#100
b1000010 !
b1000010 '
1"
b1010 %
#101
0"
#102
b1000100 !
b1000100 '
1"
#103
0"
#104
b1000110 !
b1000110 '
1"
#105
0"
#106
b1001000 !
b1001000 '
1"
#107
0"
#108
b1001010 !
b1001010 '
1"
#109
0"
#110
b1001100 !
b1001100 '
1"
b1011 %
#111
0"
#112
b1001110 !
b1001110 '
1"
#113
0"
#114
b1010000 !
b1010000 '
1"
#115
0"
#116
b1010010 !
b1010010 '
1"
#117
0"
#118
b1010100 !
b1010100 '
1"
#119
0"
#120
b1010110 !
b1010110 '
1"
b1100 %
#121
0"
#122
b1011000 !
b1011000 '
1"
#123
0"
#124
b1011010 !
b1011010 '
1"
#125
0"
#126
b1011100 !
b1011100 '
1"
#127
0"
#128
b1011110 !
b1011110 '
1"
#129
0"
#130
b1100000 !
b1100000 '
1"
b1101 %
#131
0"
#132
b1100010 !
b1100010 '
1"
#133
0"
#134
b1100100 !
b1100100 '
1"
#135
0"
#136
b1100110 !
b1100110 '
1"
#137
0"
#138
b1101000 !
b1101000 '
1"
#139
0"
#140
b1101010 !
b1101010 '
1"
b1110 %
#141
0"
#142
b1101100 !
b1101100 '
1"
#143
0"
#144
b1101110 !
b1101110 '
1"
#145
0"
#146
b1110000 !
b1110000 '
1"
#147
0"
#148
b1110010 !
b1110010 '
1"
#149
0"
#150
b1110100 !
b1110100 '
1"
b1111 %
#151
0"
#152
b1110110 !
b1110110 '
1"
#153
0"
#154
b1111000 !
b1111000 '
1"
#155
0"
#156
b1111010 !
b1111010 '
1"
#157
0"
#158
b1111100 !
b1111100 '
1"
#159
0"
#160
b1111110 !
b1111110 '
1"
b10000 %
#161
0"
#162
b10000000 !
b10000000 '
1"
#163
0"
#164
b10000010 !
b10000010 '
1"
#165
0"
#166
b10000100 !
b10000100 '
1"
#167
0"
#168
b10000110 !
b10000110 '
1"
#169
0"
#170
b10001000 !
b10001000 '
1"
b10001 %
#171
0"
#172
b10001010 !
b10001010 '
1"
#173
0"
#174
b10001100 !
b10001100 '
1"
#175
0"
#176
b10001110 !
b10001110 '
1"
#177
0"
#178
b10010000 !
b10010000 '
1"
#179
0"
#180
b10010010 !
b10010010 '
1"
b10010 %
#181
0"
#182
b10010100 !
b10010100 '
1"
#183
0"
#184
b10010110 !
b10010110 '
1"
#185
0"
#186
b10011000 !
b10011000 '
1"
#187
0"
#188
b10011010 !
b10011010 '
1"
#189
0"
#190
b10011100 !
b10011100 '
1"
b10011 %
#191
0"
#192
b10011110 !
b10011110 '
1"
#193
0"
#194
b10100000 !
b10100000 '
1"
#195
0"
#196
b10100010 !
b10100010 '
1"
#197
0"
#198
b10100100 !
b10100100 '
1"
#199
0"
#200
b10100110 !
b10100110 '
1"
b10100 %
#201
0"
#202
b10101000 !
b10101000 '
1"
#203
0"
#204
b10101010 !
b10101010 '
1"
#205
0"
#206
b10101100 !
b10101100 '
1"
#207
0"
#208
b10101110 !
b10101110 '
1"
#209
0"
#210
b10110000 !
b10110000 '
1"
b10101 %
#211
0"
#212
b10110010 !
b10110010 '
1"
#213
0"
#214
b10110100 !
b10110100 '
1"
#215
0"
#216
b10110110 !
b10110110 '
1"
#217
0"
#218
b10111000 !
b10111000 '
1"
#219
0"
#220
b10111010 !
b10111010 '
1"
b10110 %
#221
0"
#222
b10111100 !
b10111100 '
1"
#223
0"
#224
b10111110 !
b10111110 '
1"
#225
0"
#226
b11000000 !
b11000000 '
1"
#227
0"
#228
b11000010 !
b11000010 '
1"
#229
0"
#230
b11000100 !
b11000100 '
1"
b10111 %
#231
0"
#232
b11000110 !
b11000110 '
1"
#233
0"
#234
b11001000 !
b11001000 '
1"
#235
0"
#236
b11001010 !
b11001010 '
1"
#237
0"
#238
b11001100 !
b11001100 '
1"
#239
0"
#240
b11001110 !
b11001110 '
1"
b11000 %
#241
0"
#242
b11010000 !
b11010000 '
1"
#243
0"
#244
b11010010 !
b11010010 '
1"
#245
0"
#246
b11010100 !
b11010100 '
1"
#247
0"
#248
b11010110 !
b11010110 '
1"
#249
0"
#250
b11011000 !
b11011000 '
1"
b11001 %
#251
0"
#252
b11011010 !
b11011010 '
1"
#253
0"
#254
b11011100 !
b11011100 '
1"
#255
0"
#256
b11011110 !
b11011110 '
1"
#257
0"
#258
b11100000 !
b11100000 '
1"
#259
0"
#260
b11100010 !
b11100010 '
1"
b11010 %
#261
0"
#262
b11100100 !
b11100100 '
1"
#263
0"
#264
b11100110 !
b11100110 '
1"
#265
0"
#266
b11101000 !
b11101000 '
1"
#267
0"
#268
b11101010 !
b11101010 '
1"
#269
0"
#270
b11101100 !
b11101100 '
1"
b11011 %
#271
0"
#272
b11101110 !
b11101110 '
1"
#273
0"
#274
b11110000 !
b11110000 '
1"
#275
0"
#276
b11110010 !
b11110010 '
1"
#277
0"
#278
b11110100 !
b11110100 '
1"
#279
0"
#280
b11110110 !
b11110110 '
1"
b11100 %
#281
0"
#282
b11111000 !
b11111000 '
1"
#283
0"
#284
b11111010 !
b11111010 '
1"
#285
0"
#286
b11111100 !
b11111100 '
1"
#287
0"
#288
b11111110 !
b11111110 '
1"
#289
0"
#290
b100000000 !
b100000000 '
1"
b11101 %
#291
0"
#292
b100000010 !
b100000010 '
1"
#293
0"
#294
b100000100 !
b100000100 '
1"
#295
0"
#296
b100000110 !
b100000110 '
1"
#297
0"
#298
b100001000 !
b100001000 '
1"
#299
0"
#300
b100001010 !
b100001010 '
1"
b11110 %
#301
0"
#302
b100001100 !
b100001100 '
1"
#303
0"
#304
b100001110 !
b100001110 '
1"
#305
0"
#306
b100010000 !
b100010000 '
1"
#307
0"
#308
b100010010 !
b100010010 '
1"
#309
0"
#310
b100010100 !
b100010100 '
1"
b11111 %
#311
0"
#312
b100010110 !
b100010110 '
1"
#313
0"
#314
b100011000 !
b100011000 '
1"
#315
0"
#316
b100011010 !
b100011010 '
1"
#317
0"
#318
b100011100 !
b100011100 '
1"
#319
0"
#320
b100011110 !
b100011110 '
1"
b100000 %
#321
0"
#322
b100100000 !
b100100000 '
1"
#323
0"
#324
b100100010 !
b100100010 '
1"
#325
0"
#326
b100100100 !
b100100100 '
1"
#327
0"
#328
b100100110 !
b100100110 '
1"
#329
0"
#330
b100101000 !
b100101000 '
1"
b100001 %
#331
0"
#332
b100101010 !
b100101010 '
1"
#333
0"
#334
b100101100 !
b100101100 '
1"
#335
0"
#336
b100101110 !
b100101110 '
1"
#337
0"
#338
b100110000 !
b100110000 '
1"
#339
0"
#340
b100110010 !
b100110010 '
1"
b100010 %
#341
0"
#342
b100110100 !
b100110100 '
1"
#343
0"
#344
b100110110 !
b100110110 '
1"
#345
0"
#346
b100111000 !
b100111000 '
1"
#347
0"
#348
b100111010 !
b100111010 '
1"
#349
0"
#350
b100111100 !
b100111100 '
1"
b100011 %
#351
0"
#352
b100111110 !
b100111110 '
1"
#353
0"
#354
b101000000 !
b101000000 '
1"
#355
0"
#356
b101000010 !
b101000010 '
1"
#357
0"
#358
b101000100 !
b101000100 '
1"
#359
0"
#360
b101000110 !
b101000110 '
1"
b100100 %
#361
0"
#362
b101001000 !
b101001000 '
1"
#363
0"
#364
b101001010 !
b101001010 '
1"
#365
0"
#366
b101001100 !
b101001100 '
1"
#367
0"
#368
b101001110 !
b101001110 '
1"
#369
0"
#370
b101010000 !
b101010000 '
1"
b100101 %
#371
0"
#372
b101010010 !
b101010010 '
1"
#373
0"
#374
b101010100 !
b101010100 '
1"
#375
0"
#376
b101010110 !
b101010110 '
1"
#377
0"
#378
b101011000 !
b101011000 '
1"
#379
0"
#380
b101011010 !
b101011010 '
1"
b100110 %
#381
0"
#382
b101011100 !
b101011100 '
1"
#383
0"
#384
b101011110 !
b101011110 '
1"
#385
0"
#386
b101100000 !
b101100000 '
1"
#387
0"
#388
b101100010 !
b101100010 '
1"
#389
0"
#390
b101100100 !
b101100100 '
1"
b100111 %
#391
0"
#392
b101100110 !
b101100110 '
1"
#393
0"
#394
b101101000 !
b101101000 '
1"
#395
0"
#396
b101101010 !
b101101010 '
1"
#397
0"
#398
b101101100 !
b101101100 '
1"
#399
0"
#400
b101101110 !
b101101110 '
1"
b101000 %
#401
0"
#402
b101110000 !
b101110000 '
1"
#403
0"
#404
b101110010 !
b101110010 '
1"
#405
0"
#406
b101110100 !
b101110100 '
1"
#407
0"
#408
b101110110 !
b101110110 '
1"
#409
0"
#410
b101111000 !
b101111000 '
1"
b101001 %
#411
0"
#412
b101111010 !
b101111010 '
1"
#413
0"
#414
b101111100 !
b101111100 '
1"
#415
0"
#416
b101111110 !
b101111110 '
1"
#417
0"
#418
b110000000 !
b110000000 '
1"
#419
0"
#420
b110000010 !
b110000010 '
1"
b101010 %
#421
0"
#422
b110000100 !
b110000100 '
1"
#423
0"
#424
b110000110 !
b110000110 '
1"
#425
0"
#426
b110001000 !
b110001000 '
1"
#427
0"
#428
b110001010 !
b110001010 '
1"
#429
0"
#430
b110001100 !
b110001100 '
1"
b101011 %
#431
0"
#432
b110001110 !
b110001110 '
1"
#433
0"
#434
b110010000 !
b110010000 '
1"
#435
0"
#436
b110010010 !
b110010010 '
1"
#437
0"
#438
b110010100 !
b110010100 '
1"
#439
0"
#440
b110010110 !
b110010110 '
1"
b101100 %
#441
0"
#442
b110011000 !
b110011000 '
1"
#443
0"
#444
b110011010 !
b110011010 '
1"
#445
0"
#446
b110011100 !
b110011100 '
1"
#447
0"
#448
b110011110 !
b110011110 '
1"
#449
0"
#450
b110100000 !
b110100000 '
1"
b101101 %
#451
0"
#452
b110100010 !
b110100010 '
1"
#453
0"
#454
b110100100 !
b110100100 '
1"
#455
0"
#456
b110100110 !
b110100110 '
1"
#457
0"
#458
b110101000 !
b110101000 '
1"
#459
0"
#460
b110101010 !
b110101010 '
1"
b101110 %
#461
0"
#462
b110101100 !
b110101100 '
1"
#463
0"
#464
b110101110 !
b110101110 '
1"
#465
0"
#466
b110110000 !
b110110000 '
1"
#467
0"
#468
b110110010 !
b110110010 '
1"
#469
0"
#470
b110110100 !
b110110100 '
1"
b101111 %
#471
0"
#472
b110110110 !
b110110110 '
1"
#473
0"
#474
b110111000 !
b110111000 '
1"
#475
0"
#476
b110111010 !
b110111010 '
1"
#477
0"
#478
b110111100 !
b110111100 '
1"
#479
0"
#480
b110111110 !
b110111110 '
1"
b110000 %
#481
0"
#482
b111000000 !
b111000000 '
1"
#483
0"
#484
b111000010 !
b111000010 '
1"
#485
0"
#486
b111000100 !
b111000100 '
1"
#487
0"
#488
b111000110 !
b111000110 '
1"
#489
0"
#490
b111001000 !
b111001000 '
1"
b110001 %
#491
0"
#492
b111001010 !
b111001010 '
1"
#493
0"
#494
b111001100 !
b111001100 '
1"
#495
0"
#496
b111001110 !
b111001110 '
1"
#497
0"
#498
b111010000 !
b111010000 '
1"
#499
0"
#500
b111010010 !
b111010010 '
1"
b110010 %
#501
0"
#502
b111010100 !
b111010100 '
1"
#503
0"
#504
b111010110 !
b111010110 '
1"
#505
0"
#506
b111011000 !
b111011000 '
1"
#507
0"
#508
b111011010 !
b111011010 '
1"
#509
0"
#510
b111011100 !
b111011100 '
1"
b110011 %
#511
0"
#512
b111011110 !
b111011110 '
1"
#513
0"
#514
b111100000 !
b111100000 '
1"
#515
0"
#516
b111100010 !
b111100010 '
1"
#517
0"
#518
b111100100 !
b111100100 '
1"
#519
0"
#520
b111100110 !
b111100110 '
1"
b110100 %
#521
0"
#522
b111101000 !
b111101000 '
1"
#523
0"
#524
b111101010 !
b111101010 '
1"
#525
0"
#526
b111101100 !
b111101100 '
1"
#527
0"
#528
b111101110 !
b111101110 '
1"
#529
0"
#530
b111110000 !
b111110000 '
1"
b110101 %
#531
0"
#532
b111110010 !
b111110010 '
1"
#533
0"
#534
b111110100 !
b111110100 '
1"
#535
0"
#536
b111110110 !
b111110110 '
1"
#537
0"
#538
b111111000 !
b111111000 '
1"
#539
0"
#540
b111111010 !
b111111010 '
1"
b110110 %
#541
0"
#542
b111111100 !
b111111100 '
1"
#543
0"
#544
b111111110 !
b111111110 '
1"
#545
0"
#546
b1000000000 !
b1000000000 '
1"
#547
0"
#548
b1000000010 !
b1000000010 '
1"
#549
0"
#550
b1000000100 !
b1000000100 '
1"
b110111 %
#551
0"
#552
b1000000110 !
b1000000110 '
1"
#553
0"
#554
b1000001000 !
b1000001000 '
1"
#555
0"
#556
b1000001010 !
b1000001010 '
1"
#557
0"
#558
b1000001100 !
b1000001100 '
1"
#559
0"
#560
b1000001110 !
b1000001110 '
1"
b111000 %
#561
0"
#562
b1000010000 !
b1000010000 '
1"
#563
0"
#564
b1000010010 !
b1000010010 '
1"
#565
0"
#566
b1000010100 !
b1000010100 '
1"
#567
0"
#568
b1000010110 !
b1000010110 '
1"
#569
0"
#570
b1000011000 !
b1000011000 '
1"
b111001 %
#571
0"
#572
b1000011010 !
b1000011010 '
1"
#573
0"
#574
b1000011100 !
b1000011100 '
1"
#575
0"
#576
b1000011110 !
b1000011110 '
1"
#577
0"
#578
b1000100000 !
b1000100000 '
1"
#579
0"
#580
b1000100010 !
b1000100010 '
1"
b111010 %
#581
0"
#582
b1000100100 !
b1000100100 '
1"
#583
0"
#584
b1000100110 !
b1000100110 '
1"
#585
0"
#586
b1000101000 !
b1000101000 '
1"
#587
0"
#588
b1000101010 !
b1000101010 '
1"
#589
0"
#590
b1000101100 !
b1000101100 '
1"
b111011 %
#591
0"
#592
b1000101110 !
b1000101110 '
1"
#593
0"
#594
b1000110000 !
b1000110000 '
1"
#595
0"
#596
b1000110010 !
b1000110010 '
1"
#597
0"
#598
b1000110100 !
b1000110100 '
1"
#599
0"
#600
b1000110110 !
b1000110110 '
1"
b111100 %
#601
0"
#602
b1000111000 !
b1000111000 '
1"
#603
0"
#604
b1000111010 !
b1000111010 '
1"
#605
0"
#606
b1000111100 !
b1000111100 '
1"
#607
0"
#608
b1000111110 !
b1000111110 '
1"
#609
0"
#610
b1001000000 !
b1001000000 '
1"
b111101 %
#611
0"
#612
b1001000010 !
b1001000010 '
1"
#613
0"
#614
b1001000100 !
b1001000100 '
1"
#615
0"
#616
b1001000110 !
b1001000110 '
1"
#617
0"
#618
b1001001000 !
b1001001000 '
1"
#619
0"
#620
b1001001010 !
b1001001010 '
1"
b111110 %
#621
0"
#622
b1001001100 !
b1001001100 '
1"
#623
0"
#624
b1001001110 !
b1001001110 '
1"
#625
0"
#626
b1001010000 !
b1001010000 '
1"
#627
0"
#628
b1001010010 !
b1001010010 '
1"
#629
0"
#630
b1001010100 !
b1001010100 '
1"
b111111 %
#631
0"
#632
b1001010110 !
b1001010110 '
1"
#633
0"
#634
b1001011000 !
b1001011000 '
1"
#635
0"
#636
b1001011010 !
b1001011010 '
1"
#637
0"
#638
b1001011100 !
b1001011100 '
1"
#639
0"
#640
b1001011110 !
b1001011110 '
1"
b1000000 %
#641
0"
#642
b1001100000 !
b1001100000 '
1"
#643
0"
#644
b1001100010 !
b1001100010 '
1"
#645
0"
#646
b1001100100 !
b1001100100 '
1"
#647
0"
#648
b1001100110 !
b1001100110 '
1"
#649
0"
#650
b1001101000 !
b1001101000 '
1"
b1000001 %
#651
0"
#652
b1001101010 !
b1001101010 '
1"
#653
0"
#654
b1001101100 !
b1001101100 '
1"
#655
0"
#656
b1001101110 !
b1001101110 '
1"
#657
0"
#658
b1001110000 !
b1001110000 '
1"
#659
0"
#660
b1001110010 !
b1001110010 '
1"
b1000010 %
#661
0"
#662
b1001110100 !
b1001110100 '
1"
#663
0"
#664
b1001110110 !
b1001110110 '
1"
#665
0"
#666
b1001111000 !
b1001111000 '
1"
#667
0"
#668
b1001111010 !
b1001111010 '
1"
#669
0"
#670
b1001111100 !
b1001111100 '
1"
b1000011 %
#671
0"
#672
b1001111110 !
b1001111110 '
1"
#673
0"
#674
b1010000000 !
b1010000000 '
1"
#675
0"
#676
b1010000010 !
b1010000010 '
1"
#677
0"
#678
b1010000100 !
b1010000100 '
1"
#679
0"
#680
b1010000110 !
b1010000110 '
1"
b1000100 %
#681
0"
#682
b1010001000 !
b1010001000 '
1"
#683
0"
#684
b1010001010 !
b1010001010 '
1"
#685
0"
#686
b1010001100 !
b1010001100 '
1"
#687
0"
#688
b1010001110 !
b1010001110 '
1"
#689
0"
#690
b1010010000 !
b1010010000 '
1"
b1000101 %
#691
0"
#692
b1010010010 !
b1010010010 '
1"
#693
0"
#694
b1010010100 !
b1010010100 '
1"
#695
0"
#696
b1010010110 !
b1010010110 '
1"
#697
0"
#698
b1010011000 !
b1010011000 '
1"
#699
0"
#700
b1010011010 !
b1010011010 '
1"
b1000110 %
#701
0"
#702
b1010011100 !
b1010011100 '
1"
#703
0"
#704
b1010011110 !
b1010011110 '
1"
#705
0"
#706
b1010100000 !
b1010100000 '
1"
#707
0"
#708
b1010100010 !
b1010100010 '
1"
#709
0"
#710
b1010100100 !
b1010100100 '
1"
b1000111 %
#711
0"
#712
b1010100110 !
b1010100110 '
1"
#713
0"
#714
b1010101000 !
b1010101000 '
1"
#715
0"
#716
b1010101010 !
b1010101010 '
1"
#717
0"
#718
b1010101100 !
b1010101100 '
1"
#719
0"
#720
b1010101110 !
b1010101110 '
1"
b1001000 %
#721
0"
#722
b1010110000 !
b1010110000 '
1"
#723
0"
#724
b1010110010 !
b1010110010 '
1"
#725
0"
#726
b1010110100 !
b1010110100 '
1"
#727
0"
#728
b1010110110 !
b1010110110 '
1"
#729
0"
#730
b1010111000 !
b1010111000 '
1"
b1001001 %
#731
0"
#732
b1010111010 !
b1010111010 '
1"
#733
0"
#734
b1010111100 !
b1010111100 '
1"
#735
0"
#736
b1010111110 !
b1010111110 '
1"
#737
0"
#738
b1011000000 !
b1011000000 '
1"
#739
0"
#740
b1011000010 !
b1011000010 '
1"
b1001010 %
#741
0"
#742
b1011000100 !
b1011000100 '
1"
#743
0"
#744
b1011000110 !
b1011000110 '
1"
#745
0"
#746
b1011001000 !
b1011001000 '
1"
#747
0"
#748
b1011001010 !
b1011001010 '
1"
#749
0"
#750
b1011001100 !
b1011001100 '
1"
b1001011 %
#751
0"
#752
b1011001110 !
b1011001110 '
1"
#753
0"
#754
b1011010000 !
b1011010000 '
1"
#755
0"
#756
b1011010010 !
b1011010010 '
1"
#757
0"
#758
b1011010100 !
b1011010100 '
1"
#759
0"
#760
b1011010110 !
b1011010110 '
1"
b1001100 %
#761
0"
#762
b1011011000 !
b1011011000 '
1"
#763
0"
#764
b1011011010 !
b1011011010 '
1"
#765
0"
#766
b1011011100 !
b1011011100 '
1"
#767
0"
#768
b1011011110 !
b1011011110 '
1"
#769
0"
#770
b1011100000 !
b1011100000 '
1"
b1001101 %
#771
0"
#772
b1011100010 !
b1011100010 '
1"
#773
0"
#774
b1011100100 !
b1011100100 '
1"
#775
0"
#776
b1011100110 !
b1011100110 '
1"
#777
0"
#778
b1011101000 !
b1011101000 '
1"
#779
0"
#780
b1011101010 !
b1011101010 '
1"
b1001110 %
#781
0"
#782
b1011101100 !
b1011101100 '
1"
#783
0"
#784
b1011101110 !
b1011101110 '
1"
#785
0"
#786
b1011110000 !
b1011110000 '
1"
#787
0"
#788
b1011110010 !
b1011110010 '
1"
#789
0"
#790
b1011110100 !
b1011110100 '
1"
b1001111 %
#791
0"
#792
b1011110110 !
b1011110110 '
1"
#793
0"
#794
b1011111000 !
b1011111000 '
1"
#795
0"
#796
b1011111010 !
b1011111010 '
1"
#797
0"
#798
b1011111100 !
b1011111100 '
1"
#799
0"
#800
b1011111110 !
b1011111110 '
1"
b1010000 %
#801
0"
#802
b1100000000 !
b1100000000 '
1"
#803
0"
#804
b1100000010 !
b1100000010 '
1"
#805
0"
#806
b1100000100 !
b1100000100 '
1"
#807
0"
#808
b1100000110 !
b1100000110 '
1"
#809
0"
#810
b1100001000 !
b1100001000 '
1"
b1010001 %
#811
0"
#812
b1100001010 !
b1100001010 '
1"
#813
0"
#814
b1100001100 !
b1100001100 '
1"
#815
0"
#816
b1100001110 !
b1100001110 '
1"
#817
0"
#818
b1100010000 !
b1100010000 '
1"
#819
0"
#820
b1100010010 !
b1100010010 '
1"
b1010010 %
#821
0"
#822
b1100010100 !
b1100010100 '
1"
#823
0"
#824
b1100010110 !
b1100010110 '
1"
#825
0"
#826
b1100011000 !
b1100011000 '
1"
#827
0"
#828
b1100011010 !
b1100011010 '
1"
#829
0"
#830
b1100011100 !
b1100011100 '
1"
b1010011 %
#831
0"
#832
b1100011110 !
b1100011110 '
1"
#833
0"
#834
b1100100000 !
b1100100000 '
1"
#835
0"
#836
b1100100010 !
b1100100010 '
1"
#837
0"
#838
b1100100100 !
b1100100100 '
1"
#839
0"
#840
b1100100110 !
b1100100110 '
1"
b1010100 %
#841
0"
#842
b1100101000 !
b1100101000 '
1"
#843
0"
#844
b1100101010 !
b1100101010 '
1"
#845
0"
#846
b1100101100 !
b1100101100 '
1"
#847
0"
#848
b1100101110 !
b1100101110 '
1"
#849
0"
#850
b1100110000 !
b1100110000 '
1"
b1010101 %
#851
0"
#852
b1100110010 !
b1100110010 '
1"
#853
0"
#854
b1100110100 !
b1100110100 '
1"
#855
0"
#856
b1100110110 !
b1100110110 '
1"
#857
0"
#858
b1100111000 !
b1100111000 '
1"
#859
0"
#860
b1100111010 !
b1100111010 '
1"
b1010110 %
#861
0"
#862
b1100111100 !
b1100111100 '
1"
#863
0"
#864
b1100111110 !
b1100111110 '
1"
#865
0"
#866
b1101000000 !
b1101000000 '
1"
#867
0"
#868
b1101000010 !
b1101000010 '
1"
#869
0"
#870
b1101000100 !
b1101000100 '
1"
b1010111 %
#871
0"
#872
b1101000110 !
b1101000110 '
1"
#873
0"
#874
b1101001000 !
b1101001000 '
1"
#875
0"
#876
b1101001010 !
b1101001010 '
1"
#877
0"
#878
b1101001100 !
b1101001100 '
1"
#879
0"
#880
b1101001110 !
b1101001110 '
1"
b1011000 %
#881
0"
#882
b1101010000 !
b1101010000 '
1"
#883
0"
#884
b1101010010 !
b1101010010 '
1"
#885
0"
#886
b1101010100 !
b1101010100 '
1"
#887
0"
#888
b1101010110 !
b1101010110 '
1"
#889
0"
#890
b1101011000 !
b1101011000 '
1"
b1011001 %
#891
0"
#892
b1101011010 !
b1101011010 '
1"
#893
0"
#894
b1101011100 !
b1101011100 '
1"
#895
0"
#896
b1101011110 !
b1101011110 '
1"
#897
0"
#898
b1101100000 !
b1101100000 '
1"
#899
0"
#900
b1101100010 !
b1101100010 '
1"
b1011010 %
#901
0"
#902
b1101100100 !
b1101100100 '
1"
#903
0"
#904
b1101100110 !
b1101100110 '
1"
#905
0"
#906
b1101101000 !
b1101101000 '
1"
#907
0"
#908
b1101101010 !
b1101101010 '
1"
#909
0"
#910
b1101101100 !
b1101101100 '
1"
b1011011 %
#911
0"
#912
b1101101110 !
b1101101110 '
1"
#913
0"
#914
b1101110000 !
b1101110000 '
1"
#915
0"
#916
b1101110010 !
b1101110010 '
1"
#917
0"
#918
b1101110100 !
b1101110100 '
1"
#919
0"
#920
b1101110110 !
b1101110110 '
1"
b1011100 %
#921
0"
#922
b1101111000 !
b1101111000 '
1"
#923
0"
#924
b1101111010 !
b1101111010 '
1"
#925
0"
#926
b1101111100 !
b1101111100 '
1"
#927
0"
#928
b1101111110 !
b1101111110 '
1"
#929
0"
#930
b1110000000 !
b1110000000 '
1"
b1011101 %
#931
0"
#932
b1110000010 !
b1110000010 '
1"
#933
0"
#934
b1110000100 !
b1110000100 '
1"
#935
0"
#936
b1110000110 !
b1110000110 '
1"
#937
0"
#938
b1110001000 !
b1110001000 '
1"
#939
0"
#940
b1110001010 !
b1110001010 '
1"
b1011110 %
#941
0"
#942
b1110001100 !
b1110001100 '
1"
#943
0"
#944
b1110001110 !
b1110001110 '
1"
#945
0"
#946
b1110010000 !
b1110010000 '
1"
#947
0"
#948
b1110010010 !
b1110010010 '
1"
#949
0"
#950
b1110010100 !
b1110010100 '
1"
b1011111 %
#951
0"
#952
b1110010110 !
b1110010110 '
1"
#953
0"
#954
b1110011000 !
b1110011000 '
1"
#955
0"
#956
b1110011010 !
b1110011010 '
1"
#957
0"
#958
b1110011100 !
b1110011100 '
1"
#959
0"
#960
b1110011110 !
b1110011110 '
1"
b1100000 %
#961
0"
#962
b1110100000 !
b1110100000 '
1"
#963
0"
#964
b1110100010 !
b1110100010 '
1"
#965
0"
#966
b1110100100 !
b1110100100 '
1"
#967
0"
#968
b1110100110 !
b1110100110 '
1"
#969
0"
#970
b1110101000 !
b1110101000 '
1"
b1100001 %
#971
0"
#972
b1110101010 !
b1110101010 '
1"
#973
0"
#974
b1110101100 !
b1110101100 '
1"
#975
0"
#976
b1110101110 !
b1110101110 '
1"
#977
0"
#978
b1110110000 !
b1110110000 '
1"
#979
0"
#980
b1110110010 !
b1110110010 '
1"
b1100010 %
#981
0"
#982
b1110110100 !
b1110110100 '
1"
#983
0"
#984
b1110110110 !
b1110110110 '
1"
#985
0"
#986
b1110111000 !
b1110111000 '
1"
#987
0"
#988
b1110111010 !
b1110111010 '
1"
#989
0"
#990
b1110111100 !
b1110111100 '
1"
b1100011 %
#991
0"
#992
b1110111110 !
b1110111110 '
1"
#993
0"
#994
b1111000000 !
b1111000000 '
1"
#995
0"
#996
b1111000010 !
b1111000010 '
1"
#997
0"
#998
b1111000100 !
b1111000100 '
1"
#999
0"
#1000
b1111000110 !
b1111000110 '
1"
b1100100 %
#1001
0"
#1002
b1111001000 !
b1111001000 '
1"
#1003
0"
#1004
b1111001010 !
b1111001010 '
1"
#1005
0"
#1006
b1111001100 !
b1111001100 '
1"
#1007
0"
#1008
b1111001110 !
b1111001110 '
1"
#1009
0"
#1010
b1111010000 !
b1111010000 '
1"
b1100101 %
#1011
0"
#1012
b1111010010 !
b1111010010 '
1"
#1013
0"
#1014
b1111010100 !
b1111010100 '
1"
#1015
0"
#1016
b1111010110 !
b1111010110 '
1"
#1017
0"
#1018
b1111011000 !
b1111011000 '
1"
#1019
0"
#1020
b1111011010 !
b1111011010 '
1"
b1100110 %
#1021
0"
#1022
b1111011100 !
b1111011100 '
1"
#1023
0"
#1024
b1111011110 !
b1111011110 '
1"
#1025
0"
#1026
b1111100000 !
b1111100000 '
1"
#1027
0"
#1028
b1111100010 !
b1111100010 '
1"
#1029
0"
#1030
b1111100100 !
b1111100100 '
1"
b1100111 %
#1031
0"
#1032
b1111100110 !
b1111100110 '
1"
#1033
0"
#1034
b1111101000 !
b1111101000 '
1"
#1035
0"
#1036
b1111101010 !
b1111101010 '
1"
#1037
0"
#1038
b1111101100 !
b1111101100 '
1"
#1039
0"
#1040
b1111101110 !
b1111101110 '
1"
b1101000 %
#1041
0"
#1042
b1111110000 !
b1111110000 '
1"
#1043
0"
#1044
b1111110010 !
b1111110010 '
1"
#1045
0"
#1046
b1111110100 !
b1111110100 '
1"
#1047
0"
#1048
b1111110110 !
b1111110110 '
1"
#1049
0"
#1050
b1111111000 !
b1111111000 '
1"
b1101001 %
#1051
0"
#1052
b1111111010 !
b1111111010 '
1"
#1053
0"
#1054
b1111111100 !
b1111111100 '
1"
#1055
0"
#1056
b1111111110 !
b1111111110 '
1"
#1057
0"
